<TICKER>,<PER>,<DATE>,<TIME>,<OPEN>,<HIGH>,<LOW>,<CLOSE>,<VOL>
LME.Copper,D,20190222,000000,6400.0408900,6513.5793350,6395.6316300,6502.5561850,54571
LME.Copper,D,20190224,000000,6506.9654450,6535.6256350,6486.0214600,6505.8631300,10757
LME.Copper,D,20190225,000000,6504.7608150,6562.0811950,6465.0774750,6483.8168300,55390
LME.Copper,D,20190226,000000,6484.9191450,6521.2955400,6467.2821050,6477.2029400,28457
LME.Copper,D,20190227,000000,6474.9983100,6551.0580450,6455.1566400,6494.8399800,13173
LME.Copper,D,20190228,000000,6494.8399800,6543.3418400,6476.1006250,6491.5330350,58299
LME.Copper,D,20190301,000000,6491.5330350,6563.1835100,6443.0311750,6450.7473800,62388
LME.Copper,D,20190303,000000,6466.1797900,6514.6816500,6465.0774750,6495.9422950,9517
LME.Copper,D,20190304,000000,6494.8399800,6495.9422950,6385.7107950,6460.6682150,68089
LME.Copper,D,20190305,000000,6459.5659000,6506.9654450,6443.0311750,6459.5659000,48110
LME.Copper,D,20190306,000000,6459.5659000,6491.5330350,6415.4733000,6424.2918200,44414
LME.Copper,D,20190307,000000,6424.2918200,6447.4404350,6382.4038500,6392.3246850,53391
LME.Copper,D,20190308,000000,6393.4270000,6404.4501500,6337.2089350,6392.3246850,46407
LME.Copper,D,20190310,000000,6374.6876450,6397.8362600,6358.1529200,6390.1200550,7063
LME.Copper,D,20190311,000000,6390.1200550,6465.0774750,6376.8922750,6456.2589550,38110
LME.Copper,D,20190312,000000,6456.2589550,6519.0909100,6438.6219150,6449.6450650,56088
LME.Copper,D,20190313,000000,6449.6450650,6480.5098850,6423.1895050,6436.4172850,40996
LME.Copper,D,20190314,000000,6435.3149700,6447.4404350,6353.7436600,6409.9617250,67837
LME.Copper,D,20190315,000000,6409.9617250,6441.9288600,6376.8922750,6412.1663550,47774
LME.Copper,D,20190317,000000,6414.3709850,6454.0543250,6391.2223700,6444.1334900,8218
LME.Copper,D,20190318,000000,6443.0311750,6465.0774750,6402.2455200,6429.8033950,48548
LME.Copper,D,20190319,000000,6428.7010800,6490.4307200,6414.3709850,6425.3941350,54565
LME.Copper,D,20190320,000000,6425.3941350,6514.6816500,6409.9617250,6511.3747050,51588
LME.Copper,D,20190321,000000,6510.2723900,6545.5464700,6375.7899600,6403.3478350,79947
LME.Copper,D,20190322,000000,6404.4501500,6426.4964500,6260.0468850,6279.8885550,80716
LME.Copper,D,20190324,000000,6267.7630900,6296.4232800,6249.0237350,6275.4792950,11380
LME.Copper,D,20190325,000000,6275.4792950,6307.4464300,6251.2283650,6292.0140200,53627
LME.Copper,D,20190326,000000,6290.9117050,6339.4135650,6274.3769800,6312.9580050,54826
LME.Copper,D,20190327,000000,6312.9580050,6328.3904150,6268.8654050,6306.3441150,47213
LME.Copper,D,20190328,000000,6306.3441150,6393.4270000,6300.8325400,6386.8131100,55567
LME.Copper,D,20190329,000000,6385.7107950,6491.5330350,6384.6084800,6462.8728450,64005
LME.Copper,D,20190331,000000,6484.9191450,6588.5367550,6484.9191450,6527.9094300,18857
LME.Copper,D,20190401,000000,6526.8071150,6529.0117450,6427.5987650,6439.7242300,53549
LME.Copper,D,20190402,000000,6439.7242300,6469.4867350,6386.8131100,6449.6450650,49578
LME.Copper,D,20190403,000000,6448.5427500,6510.2723900,6428.7010800,6481.6122000,45548
LME.Copper,D,20190404,000000,6480.5098850,6509.1700750,6401.1432050,6424.2918200,56728
LME.Copper,D,20190405,000000,6424.2918200,6438.6219150,6363.6644950,6369.1760700,34980
LME.Copper,D,20190407,000000,6395.6316300,6438.6219150,6376.8922750,6414.3709850,12430
LME.Copper,D,20190408,000000,6414.3709850,6500.3515550,6408.8594100,6498.1469250,42788
LME.Copper,D,20190409,000000,6497.0446100,6530.1140600,6452.9520100,6466.1797900,48811
LME.Copper,D,20190410,000000,6467.2821050,6487.1237750,6417.6779300,6428.7010800,49091
LME.Copper,D,20190411,000000,6427.5987650,6438.6219150,6357.0506050,6402.2455200,53351
LME.Copper,D,20190412,000000,6401.1432050,6517.9885950,6397.8362600,6484.9191450,65195
LME.Copper,D,20190414,000000,6493.7376650,6498.1469250,6469.4867350,6484.9191450,7308
LME.Copper,D,20190415,000000,6484.9191450,6490.4307200,6429.8033950,6465.0774750,39513
LME.Copper,D,20190416,000000,6466.1797900,6501.4538700,6455.1566400,6494.8399800,51236
LME.Copper,D,20190417,000000,6493.7376650,6603.9691650,6487.1237750,6510.2723900,89234
LME.Copper,D,20190418,000000,6510.2723900,6516.8862800,6400.0408900,6434.2126550,55862
LME.Copper,D,20190421,000000,6454.0543250,6465.0774750,6429.8033950,6432.0080250,7520
LME.Copper,D,20190422,000000,6432.0080250,6443.0311750,6376.8922750,6418.7802450,33856
LME.Copper,D,20190423,000000,6418.7802450,6422.0871900,6343.8228250,6368.0737550,55393
LME.Copper,D,20190424,000000,6366.9714400,6433.1103400,6364.7668100,6415.4733000,42262
LME.Copper,D,20190425,000000,6415.4733000,6415.4733000,6296.4232800,6337.2089350,55920
LME.Copper,D,20190426,000000,6336.1066200,6375.7899600,6323.9811550,6358.1529200,24244
LME.Copper,D,20190428,000000,6368.0737550,6372.4830150,6343.8228250,6352.6413450,686
LME.Copper,D,20190429,000000,6349.3344000,6395.6316300,6317.3672650,6380.1992200,11091
LME.Copper,D,20190430,000000,6380.1992200,6445.2358050,6349.3344000,6411.0640400,50816
LME.Copper,D,20190501,000000,6411.0640400,6419.8825600,6143.2014950,6181.7825200,106534
LME.Copper,D,20190502,000000,6180.6802050,6186.1917800,6110.1320450,6147.6107550,66824
LME.Copper,D,20190503,000000,6146.5084400,6245.7167900,6117.8482500,6221.4658600,60398
LME.Copper,D,20190505,000000,6170.7593700,6170.7593700,6043.9931450,6140.9968650,34042
LME.Copper,D,20190506,000000,6139.8945500,6279.8885550,6128.8714000,6247.9214200,67151
LME.Copper,D,20190507,000000,6246.8191050,6263.3538300,6118.9505650,6186.1917800,81753
LME.Copper,D,20190508,000000,6187.2940950,6192.8056700,6080.3695400,6090.2903750,79947
LME.Copper,D,20190509,000000,6090.2903750,6166.3501100,6020.8445300,6104.6204700,88139
LME.Copper,D,20190510,000000,6104.6204700,6159.7362200,6075.9602800,6122.2575100,59176
LME.Copper,D,20190512,000000,6102.4158400,6114.5413050,6047.3000900,6056.1186100,12550
LME.Copper,D,20190513,000000,6056.1186100,6068.2440750,5972.3426700,6021.9468450,65732
LME.Copper,D,20190514,000000,6020.8445300,6042.8908300,5983.3658200,6032.9699950,55650
LME.Copper,D,20190515,000000,6030.7653650,6068.2440750,5986.6727650,6041.7885150,56443
LME.Copper,D,20190516,000000,6041.7885150,6123.3598250,6028.5607350,6030.7653650,53941
LME.Copper,D,20190517,000000,6031.8676800,6061.6301850,5998.7982300,6028.5607350,41215
LME.Copper,D,20190519,000000,6024.1514750,6063.8348150,6023.0491600,6034.0723100,7289
LME.Copper,D,20190520,000000,6032.9699950,6046.1977750,5978.9565600,6039.5838850,41762
LME.Copper,D,20190521,000000,6039.5838850,6041.7885150,5964.6264650,5970.1380400,53205
LME.Copper,D,20190522,000000,5971.2403550,5973.4449850,5861.0088550,5878.6458950,59264
LME.Copper,D,20190523,000000,5877.5435800,5940.3755350,5852.1903350,5929.3523850,57923
LME.Copper,D,20190524,000000,5928.2500700,5971.2403550,5923.8408100,5946.9894250,41585
LME.Copper,D,20190526,000000,5954.7056300,5973.4449850,5941.4778500,5970.1380400,4295
LME.Copper,D,20190527,000000,5970.1380400,5992.1843400,5965.7287800,5974.5473000,14295
LME.Copper,D,20190528,000000,5973.4449850,5985.5704500,5915.0222900,5923.8408100,43209
LME.Copper,D,20190529,000000,5923.8408100,5932.6593300,5861.0088550,5881.9528400,53392
LME.Copper,D,20190530,000000,5880.8505250,5881.9528400,5801.4838450,5845.5764450,66412
LME.Copper,D,20190531,000000,5846.6787600,5853.2926500,5797.0745850,5798.1769000,59539
LME.Copper,D,20190602,000000,5799.2792150,5830.1440350,5756.2889300,5820.2232000,12959
LME.Copper,D,20190603,000000,5820.2232000,5874.2366350,5786.0514350,5834.5532950,58599
LME.Copper,D,20190604,000000,5834.5532950,5896.2829350,5818.0185700,5883.0551550,51830
LME.Copper,D,20190605,000000,5884.1574700,5894.0783050,5777.2329150,5794.8699550,63224
LME.Copper,D,20190606,000000,5794.8699550,5866.5204300,5790.4606950,5855.4972800,29627
LME.Copper,D,20190607,000000,5855.4972800,5862.1111700,5730.9356850,5783.8468050,64269
LME.Copper,D,20190609,000000,5799.2792150,5830.1440350,5788.2560650,5815.8139400,9647
LME.Copper,D,20190610,000000,5814.7116250,5919.4315500,5794.8699550,5905.1014550,52861
LME.Copper,D,20190611,000000,5905.1014550,5956.9102600,5869.8273750,5874.2366350,70462
LME.Copper,D,20190612,000000,5873.1343200,5879.7482100,5814.7116250,5823.5301450,54710
LME.Copper,D,20190613,000000,5823.5301450,5876.4412650,5802.5861600,5846.6787600,50323
LME.Copper,D,20190614,000000,5846.6787600,5852.1903350,5792.6653250,5794.8699550,39872
LME.Copper,D,20190616,000000,5808.0977350,5821.3255150,5798.1769000,5816.9162550,6391
LME.Copper,D,20190617,000000,5818.0185700,5855.4972800,5766.2097650,5842.2695000,46504
LME.Copper,D,20190618,000000,5842.2695000,5978.9565600,5827.9394050,5960.2172050,81127
LME.Copper,D,20190619,000000,5961.3195200,5978.9565600,5894.0783050,5970.1380400,61886
LME.Copper,D,20190620,000000,5971.2403550,6035.1746250,5961.3195200,5975.6496150,71205
LME.Copper,D,20190621,000000,5976.7519300,5998.7982300,5921.6361800,5956.9102600,48267
LME.Copper,D,20190623,000000,5966.8310950,5973.4449850,5951.3986850,5969.0357250,6300
LME.Copper,D,20190624,000000,5967.9334100,6002.1051750,5908.4084000,5967.9334100,44439
LME.Copper,D,20190625,000000,5967.9334100,6057.2209250,5961.3195200,6006.5144350,46391
LME.Copper,D,20190626,000000,6007.6167500,6066.0394450,5951.3986850,5996.5936000,23369
LME.Copper,D,20190627,000000,5996.5936000,6014.2306400,5940.3755350,5981.1611900,9566
LME.Copper,D,20190628,000000,5981.1611900,6003.2074900,5958.0125750,5991.0820250,39645
LME.Copper,D,20190630,000000,6062.7325000,6078.1649100,6036.2769400,6057.2209250,11513
LME.Copper,D,20190701,000000,6057.2209250,6072.6533350,5901.7945100,5928.2500700,73837
LME.Copper,D,20190702,000000,5928.2500700,5944.7847950,5851.0880200,5854.3949650,55733
LME.Copper,D,20190703,000000,5853.2926500,5924.9431250,5812.5069950,5896.2829350,43582
LME.Copper,D,20190704,000000,5896.2829350,5916.1246050,5885.2597850,5890.7713600,16917
LME.Copper,D,20190705,000000,5890.7713600,5891.8736750,5830.1440350,5876.4412650,42415
LME.Copper,D,20190707,000000,5885.2597850,5901.7945100,5858.8042250,5869.8273750,4868
LME.Copper,D,20190708,000000,5869.8273750,5928.2500700,5834.5532950,5841.1671850,48806
LME.Copper,D,20190709,000000,5841.1671850,5855.4972800,5758.4935600,5814.7116250,65026
LME.Copper,D,20190710,000000,5814.7116250,5951.3986850,5808.0977350,5927.1477550,73906
LME.Copper,D,20190711,000000,5927.1477550,5951.3986850,5905.1014550,5943.6824800,48323
LME.Copper,D,20190712,000000,5942.5801650,5984.4681350,5891.8736750,5939.2732200,40162
LME.Copper,D,20190714,000000,5946.9894250,5977.8542450,5920.5338650,5973.4449850,9341
LME.Copper,D,20190715,000000,5973.4449850,6014.2306400,5950.2963700,5970.1380400,48607
LME.Copper,D,20190716,000000,5970.1380400,6030.7653650,5939.2732200,5955.8079450,60344
LME.Copper,D,20190717,000000,5955.8079450,5989.9797100,5912.8176600,5965.7287800,48692
LME.Copper,D,20190718,000000,5965.7287800,6106.8251000,5935.9662750,6091.3926900,61225
LME.Copper,D,20190719,000000,6091.3926900,6179.5778900,6042.8908300,6042.8908300,93465
LME.Copper,D,20190721,000000,6069.3463900,6083.6764850,6043.9931450,6060.5278700,10829
LME.Copper,D,20190722,000000,6060.5278700,6077.0625950,5987.7750800,6003.2074900,50866
LME.Copper,D,20190723,000000,6002.1051750,6018.6399000,5924.9431250,5952.5010000,54750
LME.Copper,D,20190724,000000,5952.5010000,5997.6959150,5952.5010000,5962.4218350,35775
LME.Copper,D,20190725,000000,5962.4218350,6037.3792550,5952.5010000,5961.3195200,48176
LME.Copper,D,20190726,000000,5961.3195200,5978.9565600,5917.2269200,5932.6593300,39980
LME.Copper,D,20190728,000000,5931.5570150,5944.7847950,5921.6361800,5923.8408100,6576
LME.Copper,D,20190729,000000,5922.7384950,6010.9236950,5911.7153450,5996.5936000,41447
LME.Copper,D,20190730,000000,5996.5936000,5998.7982300,5897.3852500,5915.0222900,53818
LME.Copper,D,20190731,000000,5915.0222900,5932.6593300,5844.4741300,5863.2134850,50073
LME.Copper,D,20190801,000000,5863.2134850,5881.9528400,5707.7870700,5780.5398600,66454
LME.Copper,D,20190802,000000,5779.4375450,5792.6653250,5643.8528000,5660.3875250,69672
LME.Copper,D,20190804,000000,5644.9551150,5683.5361400,5581.0208450,5629.5227050,22671
LME.Copper,D,20190805,000000,5628.4203900,5661.4898400,5588.7370500,5636.1365950,74292
LME.Copper,D,20190806,000000,5635.0342800,5670.3083600,5624.0111300,5625.1134450,52950
LME.Copper,D,20190807,000000,5625.1134450,5733.1403150,5605.2717750,5708.8893850,59203
LME.Copper,D,20190808,000000,5709.9917000,5765.1074500,5694.5592900,5726.5264250,48852
LME.Copper,D,20190809,000000,5726.5264250,5770.6190250,5692.3546600,5719.9125350,43121
LME.Copper,D,20190811,000000,5726.5264250,5727.6287400,5704.4801250,5716.6055900,5393
LME.Copper,D,20190812,000000,5715.5032750,5758.4935600,5661.4898400,5691.2523450,47045
LME.Copper,D,20190813,000000,5691.2523450,5823.5301450,5659.2852100,5786.0514350,63366
LME.Copper,D,20190814,000000,5786.0514350,5787.1537500,5684.6384550,5727.6287400,52282
LME.Copper,D,20190815,000000,5727.6287400,5745.2657800,5675.8199350,5729.8333700,44303
LME.Copper,D,20190816,000000,5730.9356850,5746.3680950,5698.9685500,5703.3778100,27386
LME.Copper,D,20190818,000000,5727.6287400,5734.2426300,5707.7870700,5732.0380000,4407
LME.Copper,D,20190819,000000,5730.9356850,5789.3583800,5719.9125350,5732.0380000,35869
LME.Copper,D,20190820,000000,5732.0380000,5739.7542050,5665.8991000,5683.5361400,37552
LME.Copper,D,20190821,000000,5682.4338250,5712.1963300,5652.6713200,5652.6713200,30874
LME.Copper,D,20190822,000000,5652.6713200,5693.4569750,5616.2949250,5639.4435400,46712
LME.Copper,D,20190823,000000,5639.4435400,5678.0245650,5563.3838050,5571.1000100,43406
LME.Copper,D,20190825,000000,5546.8490800,5551.2583400,5491.7333300,5532.5189850,9692
LME.Copper,D,20190826,000000,5532.5189850,5619.6018700,5524.8027800,5596.4532550,35681
LME.Copper,D,20190827,000000,5596.4532550,5668.1037300,5575.5092700,5626.2157600,34929
LME.Copper,D,20190828,000000,5627.3180750,5657.0805800,5593.1463100,5619.6018700,20124
LME.Copper,D,20190829,000000,5619.6018700,5691.2523450,5601.9648300,5679.1268800,6931
LME.Copper,D,20190830,000000,5679.1268800,5695.6616050,5612.9879800,5637.2389100,47276
LME.Copper,D,20190901,000000,5632.8296500,5644.9551150,5614.0902950,5636.1365950,4468
LME.Copper,D,20190902,000000,5635.0342800,5661.4898400,5572.2023250,5595.3509400,25665
LME.Copper,D,20190903,000000,5595.3509400,5603.0671450,5471.8916600,5601.9648300,71259
LME.Copper,D,20190904,000000,5600.8625150,5775.0282850,5600.8625150,5738.6518900,79955
LME.Copper,D,20190905,000000,5737.5495750,5840.0648700,5704.4801250,5791.5630100,79547
LME.Copper,D,20190906,000000,5791.5630100,5840.0648700,5778.3352300,5799.2792150,41830
LME.Copper,D,20190908,000000,5801.4838450,5803.6884750,5779.4375450,5789.3583800,4826
LME.Copper,D,20190909,000000,5789.3583800,5826.8370900,5761.8005050,5816.9162550,40305
LME.Copper,D,20190910,000000,5816.9162550,5824.6324600,5737.5495750,5809.2000500,47311
LME.Copper,D,20190911,000000,5810.3023650,5832.3486650,5733.1403150,5829.0417200,48915
LME.Copper,D,20190912,000000,5829.0417200,5881.9528400,5709.9917000,5851.0880200,68970
LME.Copper,D,20190913,000000,5852.1903350,5962.4218350,5849.9857050,5958.0125750,51777
LME.Copper,D,20190915,000000,5933.7616450,5966.8310950,5876.4412650,5887.4644150,15189
LME.Copper,D,20190916,000000,5887.4644150,5910.6130300,5800.3815300,5803.6884750,55688
LME.Copper,D,20190917,000000,5803.6884750,5811.4046800,5745.2657800,5801.4838450,46507
LME.Copper,D,20190918,000000,5801.4838450,5815.8139400,5726.5264250,5756.2889300,39938
LME.Copper,D,20190919,000000,5757.3912450,5784.9491200,5739.7542050,5772.8236550,36956
LME.Copper,D,20190920,000000,5772.8236550,5806.9954200,5701.1731800,5713.2986450,45875
LME.Copper,D,20190922,000000,5718.8102200,5751.8796700,5716.6055900,5734.2426300,6170
LME.Copper,D,20190923,000000,5734.2426300,5783.8468050,5671.4106750,5767.3120800,57329
LME.Copper,D,20190924,000000,5767.3120800,5779.4375450,5723.2194800,5738.6518900,42900
LME.Copper,D,20190925,000000,5738.6518900,5765.1074500,5703.3778100,5754.0843000,44075
LME.Copper,D,20190926,000000,5754.0843000,5772.8236550,5667.0014150,5691.2523450,47831
LME.Copper,D,20190927,000000,5691.2523450,5760.6981900,5689.0477150,5729.8333700,40739
LME.Copper,D,20190929,000000,5727.6287400,5772.8236550,5727.6287400,5758.4935600,7349
LME.Copper,D,20190930,000000,5757.3912450,5766.2097650,5622.9088150,5624.0111300,44612
LME.Copper,D,20191001,000000,5624.0111300,5685.7407700,5544.6444500,5683.5361400,59729
LME.Copper,D,20191002,000000,5683.5361400,5700.0708650,5616.2949250,5679.1268800,48155
LME.Copper,D,20191003,000000,5679.1268800,5692.3546600,5588.7370500,5599.7602000,42723
LME.Copper,D,20191004,000000,5599.7602000,5657.0805800,5577.7139000,5653.7736350,35896
LME.Copper,D,20191006,000000,5637.2389100,5670.3083600,5635.0342800,5646.0574300,4259
LME.Copper,D,20191007,000000,5644.9551150,5735.3449450,5627.3180750,5725.4241100,44344
LME.Copper,D,20191008,000000,5725.4241100,5734.2426300,5647.1597450,5668.1037300,46384
LME.Copper,D,20191009,000000,5668.1037300,5705.5824400,5616.2949250,5684.6384550,46509
LME.Copper,D,20191010,000000,5684.6384550,5776.1306000,5684.6384550,5762.9028200,60049
LME.Copper,D,20191011,000000,5762.9028200,5813.6093100,5745.2657800,5784.9491200,49854
LME.Copper,D,20191013,000000,5792.6653250,5802.5861600,5762.9028200,5799.2792150,9860
LME.Copper,D,20191014,000000,5799.2792150,5823.5301450,5718.8102200,5799.2792150,53689
LME.Copper,D,20191015,000000,5800.3815300,5800.3815300,5734.2426300,5737.5495750,43833
LME.Copper,D,20191016,000000,5737.5495750,5745.2657800,5672.5129900,5692.3546600,48718
LME.Copper,D,20191017,000000,5691.2523450,5770.6190250,5681.3315100,5716.6055900,46762
LME.Copper,D,20191018,000000,5716.6055900,5833.4509800,5698.9685500,5829.0417200,59164
LME.Copper,D,20191020,000000,5819.1208850,5835.6556100,5808.0977350,5822.4278300,7224
LME.Copper,D,20191021,000000,5822.4278300,5864.3158000,5799.2792150,5823.5301450,44686
LME.Copper,D,20191022,000000,5823.5301450,5842.2695000,5779.4375450,5786.0514350,43223
LME.Copper,D,20191023,000000,5784.9491200,5896.2829350,5764.0051350,5872.0320050,66503
LME.Copper,D,20191024,000000,5872.0320050,5907.3060850,5862.1111700,5867.6227450,49020
LME.Copper,D,20191025,000000,5867.6227450,5931.5570150,5867.6227450,5918.3292350,43148
LME.Copper,D,20191027,000000,5919.4315500,5923.8408100,5895.1806200,5902.8968250,7395
LME.Copper,D,20191028,000000,5902.8968250,5928.2500700,5894.0783050,5903.9991400,39188
LME.Copper,D,20191029,000000,5902.8968250,5945.8871100,5891.8736750,5916.1246050,47274
LME.Copper,D,20191030,000000,5915.0222900,5942.5801650,5865.4181150,5921.6361800,50626
LME.Copper,D,20191031,000000,5921.6361800,5923.8408100,5793.7676400,5837.8602400,79222
LME.Copper,D,20191101,000000,5837.8602400,5873.1343200,5801.4838450,5867.6227450,46475
LME.Copper,D,20191103,000000,5869.8273750,5876.4412650,5857.7019100,5872.0320050,5782
LME.Copper,D,20191104,000000,5872.0320050,5901.7945100,5849.9857050,5894.0783050,46948
LME.Copper,D,20191105,000000,5892.9759900,5986.6727650,5892.9759900,5944.7847950,70679
LME.Copper,D,20191106,000000,5944.7847950,5948.0917400,5865.4181150,5885.2597850,49279
LME.Copper,D,20191107,000000,5885.2597850,6018.6399000,5885.2597850,5961.3195200,72419
LME.Copper,D,20191108,000000,5961.3195200,5983.3658200,5900.6921950,5927.1477550,44848
LME.Copper,D,20191110,000000,5915.0222900,5930.4547000,5899.5898800,5908.4084000,5107
LME.Copper,D,20191111,000000,5907.3060850,5907.3060850,5855.4972800,5897.3852500,40840
LME.Copper,D,20191112,000000,5897.3852500,5916.1246050,5824.6324600,5842.2695000,50712
LME.Copper,D,20191113,000000,5842.2695000,5845.5764450,5804.7907900,5836.7579250,46289
LME.Copper,D,20191114,000000,5836.7579250,5859.9065400,5760.6981900,5813.6093100,58694
LME.Copper,D,20191115,000000,5813.6093100,5826.8370900,5781.6421750,5812.5069950,34410
LME.Copper,D,20191117,000000,5813.6093100,5832.3486650,5804.7907900,5826.8370900,6945
LME.Copper,D,20191118,000000,5826.8370900,5838.9625550,5762.9028200,5781.6421750,52516
LME.Copper,D,20191119,000000,5781.6421750,5869.8273750,5781.6421750,5838.9625550,51416
LME.Copper,D,20191120,000000,5836.7579250,5877.5435800,5822.4278300,5832.3486650,12596
LME.Copper,D,20191121,000000,5819.1208850,5824.6324600,5779.4375450,5788.2560650,12743
LME.Copper,D,20191122,000000,5782.7444900,5845.5764450,5769.5167100,5830.1440350,11751
LME.Copper,D,20191124,000000,5832.3486650,5836.7579250,5829.0417200,5835.6556100,175
LME.Copper,D,20191125,000000,5837.8602400,5885.2597850,5814.7116250,5833.4509800,11011
LME.Copper,D,20191126,000000,5823.5301450,5907.3060850,5810.3023650,5903.9991400,11217
LME.Copper,D,20191127,000000,5879.7482100,5931.5570150,5879.7482100,5894.0783050,3423
LME.Copper,D,20191128,000000,5878.6458950,5896.2829350,5848.8833900,5885.2597850,714
LME.Copper,D,20191129,000000,5892.9759900,5898.4875650,5849.9857050,5866.5204300,10977
LME.Copper,D,20191201,000000,5868.7250600,5881.9528400,5855.4972800,5880.8505250,428
LME.Copper,D,20191202,000000,5890.7713600,5906.2037700,5835.6556100,5845.5764450,15524
LME.Copper,D,20191203,000000,5849.9857050,5851.0880200,5778.3352300,5792.6653250,18239
LME.Copper,D,20191204,000000,5793.7676400,5877.5435800,5778.3352300,5863.2134850,19164
LME.Copper,D,20191205,000000,5853.2926500,5899.5898800,5852.1903350,5878.6458950,13200
LME.Copper,D,20191206,000000,5878.6458950,6070.4487050,5878.6458950,6062.7325000,21596
LME.Copper,D,20191208,000000,6052.8116650,6052.8116650,6030.7653650,6030.7653650,791
LME.Copper,D,20191209,000000,6021.9468450,6088.0857450,6003.2074900,6072.6533350,18717
LME.Copper,D,20191210,000000,6083.6764850,6104.6204700,6069.3463900,6086.9834300,16285
LME.Copper,D,20191211,000000,6111.2343600,6167.4524250,6106.8251000,6154.2246450,17402
LME.Copper,D,20191212,000000,6154.2246450,6241.3075300,6092.4950050,6215.9542850,19502
LME.Copper,D,20191213,000000,6213.7496550,6224.7728050,6096.9042650,6138.7922350,20685
LME.Copper,D,20191215,000000,6143.2014950,6148.7130700,6136.5876050,6142.0991800,441
LME.Copper,D,20191216,000000,6152.0200150,6212.6473400,6146.5084400,6176.2709450,14323
LME.Copper,D,20191217,000000,6228.0797500,6229.1820650,6182.8848350,6188.3964100,14272
LME.Copper,D,20191218,000000,6168.5547400,6202.7265050,6145.4061250,6193.9079850,12107
LME.Copper,D,20191219,000000,6180.6802050,6233.5913250,6174.0663150,6226.9774350,11549
LME.Copper,D,20191220,000000,6208.2380800,6210.4427100,6170.7593700,6181.7825200,8530
LME.Copper,D,20191222,000000,6188.3964100,6189.4987250,6176.2709450,6187.2940950,269
LME.Copper,D,20191223,000000,6175.1686300,6201.6241900,6167.4524250,6190.6010400,7173
LME.Copper,D,20191224,000000,6217.0566000,6243.5121600,6201.6241900,6228.0797500,6064
LME.Copper,D,20191225,000000,6255.6376250,6263.3538300,6252.3306800,6253.4329950,494
LME.Copper,D,20191226,000000,6252.3306800,6297.5255950,6245.7167900,6283.1955000,5959
LME.Copper,D,20191227,000000,6269.9677200,6280.9908700,6207.1357650,6222.5681750,9422
LME.Copper,D,20191229,000000,6229.1820650,6234.6936400,6229.1820650,6232.4890100,232
LME.Copper,D,20191230,000000,6245.7167900,6251.2283650,6215.9542850,6218.1589150,7347
LME.Copper,D,20191231,000000,6202.7265050,6209.3403950,6164.1454800,6169.6570550,7122
LME.Copper,D,20200101,000000,6180.6802050,6188.3964100,6176.2709450,6186.1917800,467
LME.Copper,D,20200102,000000,6225.8751200,6231.3866950,6161.9408500,6213.7496550,9063
LME.Copper,D,20200103,000000,6188.3964100,6188.3964100,6083.6764850,6129.9737150,9483
LME.Copper,D,20200105,000000,6095.8019500,6121.1551950,6095.8019500,6109.0297300,572
LME.Copper,D,20200106,000000,6148.7130700,6155.3269600,6095.8019500,6145.4061250,8028
LME.Copper,D,20200107,000000,6170.7593700,6179.5778900,6114.5413050,6129.9737150,8511
LME.Copper,D,20200108,000000,6154.2246450,6202.7265050,6152.0200150,6199.4195600,8709
LME.Copper,D,20200109,000000,6202.7265050,6214.8519700,6163.0431650,6172.9640000,8733
LME.Copper,D,20200110,000000,6190.6010400,6251.2283650,6164.1454800,6195.0103000,8848
LME.Copper,D,20200112,000000,6185.0894650,6207.1357650,6185.0894650,6200.5218750,429
LME.Copper,D,20200113,000000,6225.8751200,6314.0603200,6197.2149300,6296.4232800,10310
LME.Copper,D,20200114,000000,6285.4001300,6335.0043050,6284.2978150,6308.5487450,9751
LME.Copper,D,20200115,000000,6282.0931850,6325.0834700,6254.5353100,6317.3672650,9542
LME.Copper,D,20200116,000000,6297.5255950,6361.4598650,6266.6607750,6289.8093900,11195
LME.Copper,D,20200117,000000,6300.8325400,6338.3112500,6265.5584600,6273.2746650,10269
LME.Copper,D,20200119,000000,6276.5816100,6286.5024450,6274.3769800,6286.5024450,275
LME.Copper,D,20200120,000000,6296.4232800,6307.4464300,6254.5353100,6271.0700350,5745
LME.Copper,D,20200121,000000,6177.3732600,6206.0334500,6146.5084400,6157.5315900,11119
LME.Copper,D,20200122,000000,6175.1686300,6182.8848350,6093.5973200,6102.4158400,10503
LME.Copper,D,20200123,000000,6072.6533350,6091.3926900,5976.7519300,6020.8445300,12129
LME.Copper,D,20200124,000000,6010.9236950,6016.4352700,5902.8968250,5913.9199750,11379
LME.Copper,D,20200126,000000,5880.8505250,5892.9759900,5800.3815300,5805.8931050,853
LME.Copper,D,20200127,000000,5823.5301450,5832.3486650,5713.2986450,5735.3449450,14695
LME.Copper,D,20200128,000000,5737.5495750,5741.9588350,5682.4338250,5701.1731800,11518
LME.Copper,D,20200129,000000,5727.6287400,5737.5495750,5628.4203900,5655.9782650,12469
LME.Copper,D,20200130,000000,5579.9185300,5644.9551150,5549.0537100,5608.5787200,11389
LME.Copper,D,20200131,000000,5600.8625150,5601.9648300,5519.2912050,5539.1328750,11181
LME.Copper,D,20200202,000000,5489.5287000,5552.3606550,5484.0171250,5546.8490800,1094
LME.Copper,D,20200203,000000,5625.1134450,5627.3180750,5503.8587950,5535.8259300,12699
LME.Copper,D,20200204,000000,5637.2389100,5668.1037300,5584.3277900,5606.3740900,11072
LME.Copper,D,20200205,000000,5663.6944700,5741.9588350,5635.0342800,5698.9685500,13945
LME.Copper,D,20200206,000000,5776.1306000,5777.2329150,5682.4338250,5727.6287400,11460
LME.Copper,D,20200207,000000,5698.9685500,5711.0940150,5611.8856650,5614.0902950,10250
LME.Copper,D,20200209,000000,5621.8065000,5629.5227050,5599.7602000,5610.7833500,848
LME.Copper,D,20200210,000000,5673.6153050,5679.1268800,5605.2717750,5637.2389100,9963
LME.Copper,D,20200211,000000,5700.0708650,5747.4704100,5660.3875250,5704.4801250,11008
LME.Copper,D,20200212,000000,5715.5032750,5754.0843000,5689.0477150,5717.7079050,9579
LME.Copper,D,20200213,000000,5716.6055900,5790.4606950,5694.5592900,5752.9819850,10257
LME.Copper,D,20200214,000000,5758.4935600,5768.4143950,5716.6055900,5730.9356850,9407
LME.Copper,D,20200216,000000,5740.8565200,5754.0843000,5738.6518900,5746.3680950,485
LME.Copper,D,20200217,000000,5793.7676400,5801.4838450,5767.3120800,5775.0282850,5984
LME.Copper,D,20200218,000000,5771.7213400,5776.1306000,5718.8102200,5754.0843000,11648
LME.Copper,D,20200219,000000,5781.6421750,5787.1537500,5683.5361400,5767.3120800,11834
LME.Copper,D,20200220,000000,5740.8565200,5757.3912450,5685.7407700,5702.2754950,9940
LME.Copper,D,20200221,000000,5700.0708650,5769.5167100,5647.1597450,5734.2426300,10801
LME.Copper,D,20200223,000000,5713.2986450,5714.4009600,5659.2852100,5671.4106750,768
LME.Copper,D,20200224,000000,5679.1268800,5698.9685500,5641.6481700,5678.0245650,9157
LME.Copper,D,20200225,000000,5698.9685500,5712.1963300,5640.5458550,5660.3875250,8127
LME.Copper,D,20200226,000000,5668.1037300,5682.4338250,5606.3740900,5670.3083600,6745
LME.Copper,D,20200227,000000,5669.2060450,5690.1500300,5562.2814900,5582.1231600,27162
LME.Copper,D,20200228,000000,5581.0208450,5632.8296500,5528.1097250,5609.6810350,64636
LME.Copper,D,20200301,000000,5560.0768600,5689.0477150,5513.7796300,5685.7407700,26090
LME.Copper,D,20200302,000000,5685.7407700,5787.1537500,5637.2389100,5730.9356850,73198
LME.Copper,D,20200303,000000,5729.8333700,5741.9588350,5616.2949250,5707.7870700,59973
LME.Copper,D,20200304,000000,5706.6847550,5732.0380000,5665.8991000,5726.5264250,46356
LME.Copper,D,20200305,000000,5726.5264250,5732.0380000,5633.9319650,5647.1597450,54815
LME.Copper,D,20200306,000000,5647.1597450,5668.1037300,5582.1231600,5630.6250200,48756
LME.Copper,D,20200308,000000,5588.7370500,5588.7370500,5430.0036900,5496.1425900,38346
LME.Copper,D,20200309,000000,5496.1425900,5633.9319650,5415.6735950,5617.3972400,65090
LME.Copper,D,20200310,000000,5618.4995550,5655.9782650,5538.0305600,5584.3277900,49813
LME.Copper,D,20200311,000000,5584.3277900,5585.4301050,5381.5018300,5423.3898000,60255
LME.Copper,D,20200312,000000,5423.3898000,5471.8916600,5294.4189450,5366.0694200,59903
LME.Copper,D,20200313,000000,5366.0694200,5581.0208450,5364.9671050,5497.2449050,59326
LME.Copper,D,20200315,000000,5533.6213000,5545.7467650,5320.8745050,5390.3203500,16064
LME.Copper,D,20200316,000000,5390.3203500,5400.2411850,5147.8110500,5294.4189450,79535
LME.Copper,D,20200317,000000,5293.3166300,5327.4883950,5075.0582600,5144.5041050,66388
LME.Copper,D,20200318,000000,5145.6064200,5147.8110500,4348.6326750,4462.1711200,78751
LME.Copper,D,20200319,000000,4462.1711200,4838.0605350,4450.0456550,4713.4989400,63879
LME.Copper,D,20200320,000000,4715.7035700,4930.6549950,4689.2480100,4746.5683900,48334
LME.Copper,D,20200322,000000,4732.2382950,4732.2382950,4454.4549150,4565.7887300,24443
LME.Copper,D,20200323,000000,4564.6864150,4785.1494150,4529.4123350,4689.2480100,55381
LME.Copper,D,20200324,000000,4688.1456950,4935.0642550,4638.5415200,4834.7535900,59595
LME.Copper,D,20200325,000000,4832.5489600,4909.7110100,4738.8521850,4818.2188650,54794
LME.Copper,D,20200326,000000,4818.2188650,4853.4929450,4759.7961700,4828.1397000,45231
LME.Copper,D,20200327,000000,4828.1397000,4857.9022050,4757.5915400,4777.4332100,29639
LME.Copper,D,20200329,000000,4732.2382950,4776.3308950,4707.9873650,4759.7961700,14075
LME.Copper,D,20200330,000000,4759.7961700,4862.3114650,4731.1359800,4827.0373850,36876
LME.Copper,D,20200331,000000,4827.0373850,4956.0082400,4791.7633050,4855.6975750,40420
LME.Copper,D,20200401,000000,4854.5952600,4857.9022050,4741.0568150,4803.8887700,44998
LME.Copper,D,20200402,000000,4802.7864550,4928.4503650,4792.8656200,4872.2323000,40878
LME.Copper,D,20200403,000000,4871.1299850,4919.6318450,4785.1494150,4800.5818250,29576
LME.Copper,D,20200405,000000,4824.8327550,4895.3809150,4810.5026600,4878.8461900,7989
LME.Copper,D,20200406,000000,4877.7438750,5014.4309350,4859.0045200,5004.5101000,42290
LME.Copper,D,20200407,000000,5004.5101000,5109.2300250,4943.8827750,5021.0448250,53999
LME.Copper,D,20200408,000000,5021.0448250,5045.2957550,4943.8827750,5011.1239900,42710
LME.Copper,D,20200409,000000,5011.1239900,5023.2494550,4952.7012950,5004.5101000,29888
LME.Copper,D,20200412,000000,5071.7513150,5140.0948450,4990.1800050,5119.1508600,14790
LME.Copper,D,20200413,000000,5119.1508600,5186.3920750,5073.9559450,5130.1740100,35179
LME.Copper,D,20200414,000000,5131.2763250,5148.9133650,5084.9790950,5127.9693800,31919
LME.Copper,D,20200415,000000,5129.0716950,5133.4809550,5019.9425100,5068.4443700,32896
LME.Copper,D,20200416,000000,5068.4443700,5198.5175400,5046.3980700,5164.3457750,35121
LME.Copper,D,20200417,000000,5165.4480900,5197.4152250,5140.0948450,5157.7318850,26480
LME.Copper,D,20200419,000000,5172.0619800,5191.9036500,5145.6064200,5176.4712400,9819
LME.Copper,D,20200420,000000,5175.3689250,5185.2897600,4998.9985250,5008.9193600,42760
LME.Copper,D,20200421,000000,5008.9193600,5011.1239900,4738.8521850,4883.2554500,64226
LME.Copper,D,20200422,000000,4884.3577650,5057.4212200,4874.4369300,5049.7050150,40220
LME.Copper,D,20200423,000000,5049.7050150,5156.6295700,5039.7841800,5072.8536300,32495
LME.Copper,D,20200424,000000,5071.7513150,5209.5406900,5045.2957550,5195.2105950,23835
LME.Copper,D,20200426,000000,5191.9036500,5256.9402350,5170.9596650,5247.0194000,9672
LME.Copper,D,20200427,000000,5244.8147700,5259.1448650,5107.0253950,5174.2666100,28038
LME.Copper,D,20200428,000000,5173.1642950,5234.8939350,5145.6064200,5205.1314300,14673
LME.Copper,D,20200429,000000,5200.7221700,5281.1911650,5185.2897600,5259.1448650,7755
LME.Copper,D,20200430,000000,5258.0425500,5280.0888500,5057.4212200,5059.6258500,44726
LME.Copper,D,20200501,000000,5058.5235350,5110.3323400,5039.7841800,5097.1045600,30531
LME.Copper,D,20200503,000000,5081.6721500,5081.6721500,5039.7841800,5064.0351100,5244
LME.Copper,D,20200504,000000,5064.0351100,5158.8342000,5035.3749200,5138.9925300,26023
LME.Copper,D,20200505,000000,5137.8902150,5173.1642950,5086.0814100,5170.9596650,40528
LME.Copper,D,20200506,000000,5170.9596650,5215.0522650,5145.6064200,5189.6990200,36995
LME.Copper,D,20200507,000000,5190.8013350,5313.1583000,5180.8805000,5306.5444100,46118
LME.Copper,D,20200508,000000,5307.6467250,5357.2509000,5286.7027400,5324.1814500,22075
LME.Copper,D,20200510,000000,5312.0559850,5357.2509000,5297.7258900,5328.5907100,10398
LME.Copper,D,20200511,000000,5328.5907100,5328.5907100,5207.3360600,5240.4055100,51026
LME.Copper,D,20200512,000000,5240.4055100,5261.3494950,5137.8902150,5177.5735550,37087
LME.Copper,D,20200513,000000,5177.5735550,5235.9962500,5163.2434600,5181.9828150,35028
LME.Copper,D,20200514,000000,5181.9828150,5227.1777300,5101.5138200,5218.3592100,50374
LME.Copper,D,20200515,000000,5217.2568950,5237.0985650,5133.4809550,5140.0948450,34534
LME.Copper,D,20200517,000000,5153.3226250,5216.1545800,5145.6064200,5207.3360600,8939
LME.Copper,D,20200518,000000,5206.2337450,5375.9902550,5199.6198550,5326.3860800,63381
LME.Copper,D,20200519,000000,5325.2837650,5348.4323800,5293.3166300,5329.6930250,47821
LME.Copper,D,20200520,000000,5328.5907100,5441.0268400,5299.9305200,5428.9013750,50506
LME.Copper,D,20200521,000000,5427.7990600,5431.1060050,5275.6795900,5281.1911650,58983
LME.Copper,D,20200522,000000,5280.0888500,5287.8050550,5228.2800450,5272.3726450,40531
LME.Copper,D,20200524,000000,5270.1680150,5292.2143150,5260.2471800,5277.8842200,5383
LME.Copper,D,20200525,000000,5277.8842200,5331.8976550,5264.6564400,5323.0791350,17554
LME.Copper,D,20200526,000000,5323.0791350,5377.0925700,5302.1351500,5314.2606150,45363
LME.Copper,D,20200527,000000,5313.1583000,5339.6138600,5199.6198550,5261.3494950,65317
LME.Copper,D,20200528,000000,5261.3494950,5345.1254350,5254.7356050,5308.7490400,52582
LME.Copper,D,20200529,000000,5308.7490400,5417.8782250,5296.6235750,5382.6041450,43071
LME.Copper,D,20200531,000000,5347.3300650,5426.6967450,5344.0231200,5410.1620200,12380
LME.Copper,D,20200601,000000,5410.1620200,5468.5847150,5346.2277500,5428.9013750,70800
LME.Copper,D,20200602,000000,5430.0036900,5521.4958350,5424.4921150,5480.7101800,55236
LME.Copper,D,20200603,000000,5479.6078650,5522.5981500,5435.5152650,5446.5384150,48017
LME.Copper,D,20200604,000000,5447.6407300,5518.1888900,5412.3666500,5495.0402750,45299
LME.Copper,D,20200605,000000,5495.0402750,5669.2060450,5492.8356450,5600.8625150,72223
LME.Copper,D,20200607,000000,5606.3740900,5628.4203900,5578.8162150,5608.5787200,10007
LME.Copper,D,20200608,000000,5608.5787200,5713.2986450,5593.1463100,5706.6847550,49834
LME.Copper,D,20200609,000000,5707.7870700,5773.9259700,5633.9319650,5757.3912450,60397
LME.Copper,D,20200610,000000,5758.4935600,5952.5010000,5743.0611500,5815.8139400,80029
LME.Copper,D,20200611,000000,5815.8139400,5837.8602400,5638.3412250,5711.0940150,76556
LME.Copper,D,20200612,000000,5711.0940150,5782.7444900,5683.5361400,5766.2097650,53126
LME.Copper,D,20200614,000000,5712.1963300,5735.3449450,5643.8528000,5668.1037300,12640
LME.Copper,D,20200615,000000,5668.1037300,5756.2889300,5594.2486250,5741.9588350,65637
LME.Copper,D,20200616,000000,5743.0611500,5765.1074500,5581.0208450,5639.4435400,63349
LME.Copper,D,20200617,000000,5639.4435400,5730.9356850,5631.7273350,5709.9917000,37081
LME.Copper,D,20200618,000000,5709.9917000,5789.3583800,5683.5361400,5745.2657800,38714
LME.Copper,D,20200619,000000,5745.2657800,5842.2695000,5733.1403150,5744.1634650,44837
LME.Copper,D,20200621,000000,5735.3449450,5802.5861600,5721.0148500,5786.0514350,9424
LME.Copper,D,20200622,000000,5784.9491200,5876.4412650,5758.4935600,5841.1671850,58454
LME.Copper,D,20200623,000000,5841.1671850,5896.2829350,5820.2232000,5853.2926500,40296
LME.Copper,D,20200624,000000,5853.2926500,5918.3292350,5790.4606950,5816.9162550,51888
LME.Copper,D,20200625,000000,5816.9162550,5896.2829350,5795.9722700,5883.0551550,34411
LME.Copper,D,20200626,000000,5883.0551550,5950.2963700,5843.3718150,5858.8042250,18384
LME.Copper,D,20200628,000000,5843.3718150,5916.1246050,5843.3718150,5906.2037700,1074
LME.Copper,D,20200629,000000,5909.5107150,5981.1611900,5878.6458950,5976.7519300,9263
LME.Copper,D,20200630,000000,5975.6496150,6074.8579650,5953.6033150,6063.8348150,59546
LME.Copper,D,20200701,000000,6063.8348150,6100.2112100,5966.8310950,6074.8579650,69737
LME.Copper,D,20200702,000000,6075.9602800,6104.6204700,6002.1051750,6013.1283250,55441
LME.Copper,D,20200703,000000,6014.2306400,6035.1746250,5960.2172050,5998.7982300,18387
LME.Copper,D,20200705,000000,6015.3329550,6053.9139800,6004.3098050,6045.0954600,8535
LME.Copper,D,20200706,000000,6043.9931450,6161.9408500,6042.8908300,6145.4061250,51982
LME.Copper,D,20200707,000000,6144.3038100,6171.8616850,6053.9139800,6158.6339050,53589
LME.Copper,D,20200708,000000,6157.5315900,6310.7533750,6150.9177000,6297.5255950,56172
LME.Copper,D,20200709,000000,6296.4232800,6339.4135650,6232.4890100,6256.7399400,65713
LME.Copper,D,20200710,000000,6255.6376250,6430.9057100,6222.5681750,6423.1895050,65871
LME.Copper,D,20200712,000000,6436.4172850,6597.3552750,6412.1663550,6573.1043450,28553
LME.Copper,D,20200713,000000,6572.0020300,6598.4575900,6383.5061650,6424.2918200,71612
LME.Copper,D,20200714,000000,6424.2918200,6559.8765650,6400.0408900,6474.9983100,67406
LME.Copper,D,20200715,000000,6476.1006250,6499.2492400,6307.4464300,6321.7765250,83723
LME.Copper,D,20200716,000000,6320.6742100,6416.5756150,6272.1723500,6364.7668100,61179
LME.Copper,D,20200717,000000,6364.7668100,6432.0080250,6349.3344000,6396.7339450,35763
LME.Copper,D,20200719,000000,6407.7570950,6413.2686700,6352.6413450,6385.7107950,8826
LME.Copper,D,20200720,000000,6386.8131100,6490.4307200,6373.5853300,6465.0774750,50018
LME.Copper,D,20200721,000000,6465.0774750,6574.2066600,6447.4404350,6547.7511000,48178
LME.Copper,D,20200722,000000,6546.6487850,6553.2626750,6374.6876450,6422.0871900,67255
LME.Copper,D,20200723,000000,6422.0871900,6512.4770200,6357.0506050,6361.4598650,52066
LME.Copper,D,20200724,000000,6362.5621800,6437.5196000,6319.5718950,6380.1992200,60509
LME.Copper,D,20200726,000000,6376.8922750,6437.5196000,6357.0506050,6416.5756150,11292
LME.Copper,D,20200727,000000,6415.4733000,6481.6122000,6353.7436600,6389.0177400,58530
LME.Copper,D,20200728,000000,6389.0177400,6447.4404350,6347.1297700,6411.0640400,54957
LME.Copper,D,20200729,000000,6412.1663550,6489.3284050,6382.4038500,6444.1334900,50804
LME.Copper,D,20200730,000000,6444.1334900,6462.8728450,6341.6181950,6451.8496950,69089
LME.Copper,D,20200731,000000,6452.9520100,6457.3612700,6275.4792950,6304.1394850,59538
LME.Copper,D,20200802,000000,6319.5718950,6327.2881000,6241.3075300,6310.7533750,13272
LME.Copper,D,20200803,000000,6310.7533750,6448.5427500,6293.1163350,6398.9385750,54902
LME.Copper,D,20200804,000000,6398.9385750,6413.2686700,6338.3112500,6390.1200550,51663
LME.Copper,D,20200805,000000,6389.0177400,6480.5098850,6379.0969050,6400.0408900,74253
LME.Copper,D,20200806,000000,6398.9385750,6434.2126550,6344.9251400,6354.8459750,58924
LME.Copper,D,20200807,000000,6354.8459750,6379.0969050,6135.4852900,6154.2246450,95749
LME.Copper,D,20200809,000000,6142.0991800,6202.7265050,6133.2806600,6189.4987250,14396
LME.Copper,D,20200810,000000,6189.4987250,6360.3575500,6186.1917800,6328.3904150,80875
LME.Copper,D,20200811,000000,6327.2881000,6348.2320850,6199.4195600,6213.7496550,67370
LME.Copper,D,20200812,000000,6213.7496550,6398.9385750,6189.4987250,6328.3904150,68039
LME.Copper,D,20200813,000000,6327.2881000,6341.6181950,6104.6204700,6211.5450250,79100
LME.Copper,D,20200814,000000,6211.5450250,6315.1626350,6201.6241900,6310.7533750,46361
LME.Copper,D,20200816,000000,6306.3441150,6322.8788400,6271.0700350,6312.9580050,6703
LME.Copper,D,20200817,000000,6312.9580050,6437.5196000,6311.8556900,6402.2455200,50567
LME.Copper,D,20200818,000000,6402.2455200,6645.8571350,6362.5621800,6588.5367550,83003
LME.Copper,D,20200819,000000,6587.4344400,6678.9265850,6556.5696200,6567.5927700,71792
LME.Copper,D,20200820,000000,6568.6950850,6621.6062050,6508.0677600,6614.9923150,58967
LME.Copper,D,20200821,000000,6614.9923150,6623.8108350,6407.7570950,6450.7473800,54275
LME.Copper,D,20200823,000000,6436.4172850,6477.2029400,6436.4172850,6467.2821050,6417
LME.Copper,D,20200824,000000,6466.1797900,6533.4210050,6423.1895050,6441.9288600,44634
LME.Copper,D,20200825,000000,6440.8265450,6500.3515550,6418.7802450,6484.9191450,33825
LME.Copper,D,20200826,000000,6484.9191450,6569.7974000,6465.0774750,6535.6256350,33605
LME.Copper,D,20200827,000000,6535.6256350,6599.5599050,6468.3844200,6599.5599050,31252
LME.Copper,D,20200828,000000,6600.6622200,6651.3687100,6579.7182350,6633.7316700,4102
LME.Copper,D,20200830,000000,6675.6196400,6720.8145550,6675.6196400,6710.8937200,7971
LME.Copper,D,20200831,000000,6709.7914050,6767.1117850,6684.4381600,6763.8048400,41204
LME.Copper,D,20200901,000000,6763.8048400,6822.2275350,6624.9131500,6651.3687100,69783
LME.Copper,D,20200902,000000,6651.3687100,6706.4844600,6611.6853700,6665.6988050,50982
LME.Copper,D,20200903,000000,6664.5964900,6666.8011200,6511.3747050,6599.5599050,75032
LME.Copper,D,20200904,000000,6599.5599050,6797.9766050,6584.1274950,6784.7488250,70548
LME.Copper,D,20200906,000000,6780.3395650,6808.9997550,6750.5770600,6759.3955800,12545
LME.Copper,D,20200907,000000,6759.3955800,6799.0789200,6707.5867750,6750.5770600,33261
LME.Copper,D,20200908,000000,6751.6793750,6795.7719750,6609.4807400,6682.2335300,74956
LME.Copper,D,20200909,000000,6682.2335300,6747.2701150,6627.1177800,6683.3358450,51957
LME.Copper,D,20200910,000000,6683.3358450,6735.1446500,6515.7839650,6600.6622200,82268
LME.Copper,D,20200911,000000,6599.5599050,6729.6330750,6598.4575900,6707.5867750,51451
LME.Copper,D,20200913,000000,6717.5076100,6768.2141000,6669.0057500,6727.4284450,10501
LME.Copper,D,20200914,000000,6727.4284450,6791.3627150,6676.7219550,6780.3395650,45662
LME.Copper,D,20200915,000000,6781.4418800,6814.5113300,6710.8937200,6748.3724300,56698
LME.Copper,D,20200916,000000,6748.3724300,6796.8742900,6641.4478750,6659.0849150,55841
LME.Copper,D,20200917,000000,6659.0849150,6839.8645750,6648.0617650,6824.4321650,67555
LME.Copper,D,20200918,000000,6824.4321650,6872.9340250,6754.9863200,6848.6830950,56760
LME.Copper,D,20200920,000000,6843.1715200,6880.6502300,6827.7391100,6858.6039300,11562
LME.Copper,D,20200921,000000,6858.6039300,6867.4224500,6643.6525050,6742.8608550,94961
LME.Copper,D,20200922,000000,6742.8608550,6806.7951250,6677.8242700,6680.0289000,72355
LME.Copper,D,20200923,000000,6678.9265850,6724.1215000,6486.0214600,6500.3515550,115126
LME.Copper,D,20200924,000000,6501.4538700,6586.3321250,6423.1895050,6575.3089750,96935
LME.Copper,D,20200925,000000,6575.3089750,6602.8668500,6490.4307200,6556.5696200,53653
LME.Copper,D,20200927,000000,6577.5136050,6591.8437000,6535.6256350,6585.2298100,9216
LME.Copper,D,20200928,000000,6584.1274950,6639.2432450,6552.1603600,6596.2529600,58217
LME.Copper,D,20200929,000000,6596.2529600,6650.2663950,6514.6816500,6595.1506450,70231
LME.Copper,D,20200930,000000,6594.0483300,6714.2006650,6559.8765650,6695.4613100,67335
LME.Copper,D,20201001,000000,6694.3589950,6716.4052950,6277.6839250,6283.1955000,114945
LME.Copper,D,20201002,000000,6283.1955000,6584.1274950,6249.0237350,6570.8997150,96678
LME.Copper,D,20201004,000000,6569.7974000,6579.7182350,6533.4210050,6543.3418400,6117
LME.Copper,D,20201005,000000,6542.2395250,6575.3089750,6463.9751600,6531.2163750,50068
LME.Copper,D,20201006,000000,6530.1140600,6562.0811950,6438.6219150,6480.5098850,42853
LME.Copper,D,20201007,000000,6480.5098850,6735.1446500,6478.3052550,6657.9826000,75534
LME.Copper,D,20201008,000000,6657.9826000,6783.6465100,6639.2432450,6766.0094700,54291
LME.Copper,D,20201009,000000,6766.0094700,6829.9437400,6736.2469650,6793.5673450,54830
LME.Copper,D,20201011,000000,6789.1580850,6805.6928100,6728.5307600,6781.4418800,9410
LME.Copper,D,20201012,000000,6780.3395650,6818.9205900,6707.5867750,6723.0191850,45571
LME.Copper,D,20201013,000000,6723.0191850,6746.1678000,6672.3126950,6719.7122400,53129
LME.Copper,D,20201014,000000,6719.7122400,6764.9071550,6698.7682550,6719.7122400,42008
LME.Copper,D,20201015,000000,6718.6099250,6825.5344800,6667.9034350,6790.2604000,64826
LME.Copper,D,20201016,000000,6790.2604000,6817.8182750,6736.2469650,6752.7816900,38194
LME.Copper,D,20201018,000000,6747.2701150,6808.9997550,6739.5539100,6771.5210450,8196
LME.Copper,D,20201019,000000,6770.4187300,6851.9900400,6743.9631700,6799.0789200,47582
LME.Copper,D,20201020,000000,6797.9766050,6995.2909900,6794.6696600,6983.1655250,74588
LME.Copper,D,20201021,000000,6982.0632100,7094.4993400,6976.5516350,7008.5187700,74046
LME.Copper,D,20201022,000000,7009.6210850,7041.5882200,6928.0497750,6951.1983900,64886
LME.Copper,D,20201023,000000,6950.0960750,6968.8354300,6888.3664350,6926.9474600,41960
LME.Copper,D,20201025,000000,6925.8451450,6929.1520900,6876.2409700,6888.3664350,9041
LME.Copper,D,20201026,000000,6887.2641200,6894.9803250,6783.6465100,6808.9997550,67173
LME.Copper,D,20201027,000000,6807.8974400,6861.9108750,6768.2141000,6808.9997550,52189
LME.Copper,D,20201028,000000,6808.9997550,6848.6830950,6706.4844600,6796.8742900,81764
LME.Copper,D,20201029,000000,6797.9766050,6821.1252200,6709.7914050,6768.2141000,59232
LME.Copper,D,20201030,000000,6768.2141000,6772.6233600,6695.4613100,6725.2238150,56566
LME.Copper,D,20201101,000000,6708.6890900,6732.9400200,6675.6196400,6730.7353900,10520
LME.Copper,D,20201102,000000,6729.6330750,6829.9437400,6697.6659400,6823.3298500,65116
LME.Copper,D,20201103,000000,6823.3298500,6885.0594900,6711.9960350,6804.5904950,75555
LME.Copper,D,20201104,000000,6803.4881800,6880.6502300,6676.7219550,6868.5247650,77097
LME.Copper,D,20201105,000000,6869.6270800,6914.8219950,6790.2604000,6849.7854100,61154
LME.Copper,D,20201106,000000,6848.6830950,6997.4956200,6844.2738350,6943.4821850,52011
LME.Copper,D,20201108,000000,6972.1423750,7015.1326600,6957.8122800,6997.4956200,13605
LME.Copper,D,20201109,000000,6998.5979350,7072.4530400,6886.1618050,6893.8780100,69862
LME.Copper,D,20201110,000000,6892.7756950,6979.8585800,6826.6367950,6965.5284850,62367
LME.Copper,D,20201111,000000,6964.4261700,7000.8025650,6850.8877250,6909.3104200,52836
LME.Copper,D,20201112,000000,6908.2081050,6975.4493200,6880.6502300,6922.5382000,49294
LME.Copper,D,20201113,000000,6922.5382000,7030.5650700,6917.0266250,7016.2349750,46763
LME.Copper,D,20201115,000000,7008.5187700,7192.6053750,7008.5187700,7174.9683350,21503
LME.Copper,D,20201116,000000,7173.8660200,7189.2984300,7063.6345200,7113.2386950,75505
LME.Copper,D,20201117,000000,7112.1363800,7126.4664750,7003.0071950,7073.5553550,55252
LME.Copper,D,20201118,000000,7072.4530400,7147.4104600,7012.9280300,7030.5650700,62135
LME.Copper,D,20201119,000000,7030.5650700,7120.9549000,6986.4724700,7115.4433250,47046
LME.Copper,D,20201120,000000,7115.4433250,7278.5859450,7108.8294350,7259.8465900,58849
LME.Copper,D,20201122,000000,7253.2327000,7266.4604800,7227.8794550,7243.3118650,8787
LME.Copper,D,20201123,000000,7242.2095500,7257.6419600,7131.9780500,7241.1072350,58193
LME.Copper,D,20201124,000000,7240.0049200,7342.5202150,7237.8002900,7273.0743700,56915
LME.Copper,D,20201125,000000,7274.1766850,7381.1012400,7231.1864000,7376.6919800,23807
LME.Copper,D,20201126,000000,7373.3850350,7446.1378250,7330.3947500,7440.6262500,6951
LME.Copper,D,20201127,000000,7442.8308800,7505.6628350,7436.2169900,7505.6628350,2674
LME.Copper,D,20201129,000000,7535.4253400,7712.8980550,7533.2207100,7675.4193450,25356
LME.Copper,D,20201130,000000,7675.4193450,7727.2281500,7575.1086800,7674.3170300,80893
LME.Copper,D,20201201,000000,7674.3170300,7763.6045450,7614.7920200,7677.6239750,78207
LME.Copper,D,20201202,000000,7678.7262900,7742.6605600,7581.7225700,7700.7725900,74508
LME.Copper,D,20201203,000000,7699.6702750,7766.9114900,7648.9637850,7743.7628750,81077
LME.Copper,D,20201204,000000,7742.6605600,7795.5716800,7719.5119450,7774.6276950,41268
LME.Copper,D,20201206,000000,7776.8323250,7817.6179800,7712.8980550,7744.8651900,16711
LME.Copper,D,20201207,000000,7744.8651900,7755.8883400,7668.8054550,7711.7957400,51767
LME.Copper,D,20201208,000000,7710.6934250,7779.0369550,7643.4522100,7776.8323250,63759
LME.Copper,D,20201209,000000,7776.8323250,7793.3670500,7605.9735000,7731.6374100,58690
LME.Copper,D,20201210,000000,7731.6374100,7990.6814350,7729.4327800,7813.2087200,97123
LME.Copper,D,20201211,000000,7812.1064050,7842.9712250,7708.4887950,7790.0601050,57015
LME.Copper,D,20201213,000000,7805.4925150,7839.6642800,7762.5022300,7807.6971450,12180
LME.Copper,D,20201214,000000,7807.6971450,7828.6411300,7716.2050000,7761.3999150,52854
LME.Copper,D,20201215,000000,7761.3999150,7841.8689100,7744.8651900,7814.3110350,46818
LME.Copper,D,20201216,000000,7812.1064050,7905.8031800,7805.4925150,7904.7008650,44068
LME.Copper,D,20201217,000000,7904.7008650,8034.7740350,7896.9846600,7993.9883800,65617
LME.Copper,D,20201218,000000,7992.8860650,8036.9786650,7939.9749450,8023.7508850,47034
LME.Copper,D,20201220,000000,8025.9555150,8034.7740350,7921.2355900,7975.2490250,16624
LME.Copper,D,20201221,000000,7974.1467100,7996.1930100,7818.7202950,7848.4828000,52944
LME.Copper,D,20201222,000000,7849.5851150,7850.6874300,7667.7031400,7760.2976000,69222
LME.Copper,D,20201223,000000,7759.1952850,7856.1990050,7756.9906550,7829.7434450,47545
LME.Copper,D,20201224,000000,7828.6411300,7878.2453050,7784.5485300,7873.8360450,19585
LME.Copper,D,20201227,000000,7868.3244700,7976.3513400,7840.7665950,7941.0772600,11659
LME.Copper,D,20201228,000000,7941.0772600,7948.7934650,7851.7897450,7868.3244700,33260
LME.Copper,D,20201229,000000,7868.3244700,7903.5985500,7813.2087200,7894.7800300,40013
LME.Copper,D,20201230,000000,7893.6777150,7896.9846600,7766.9114900,7783.4462150,41388
LME.Copper,D,20201231,000000,7782.3439000,7788.9577900,7728.3304650,7755.8883400,25354
LME.Copper,D,20210103,000000,7775.7300100,7900.2916050,7764.7068600,7898.0869750,17398
LME.Copper,D,20210104,000000,7898.0869750,7952.1004100,7811.0040900,7927.8494800,65912
LME.Copper,D,20210105,000000,7926.7471650,8099.8106200,7900.2916050,8039.1832950,66954
LME.Copper,D,20210106,000000,8039.1832950,8173.6657250,7990.6814350,8096.5036750,73410
LME.Copper,D,20210107,000000,8096.5036750,8232.0884200,8025.9555150,8189.0981350,67903
LME.Copper,D,20210108,000000,8189.0981350,8213.3490650,8000.6022700,8142.8009050,78207
LME.Copper,D,20210110,000000,8140.5962750,8140.5962750,7941.0772600,7953.2027250,21284
LME.Copper,D,20210111,000000,7953.2027250,8010.5231050,7829.7434450,7960.9189300,79426
LME.Copper,D,20210112,000000,7959.8166150,8045.7971850,7931.1564250,8009.4207900,65524
LME.Copper,D,20210113,000000,8009.4207900,8016.0346800,7939.9749450,7991.7837500,57446
LME.Copper,D,20210114,000000,7990.6814350,8121.8569200,7959.8166150,8014.9323650,57304
LME.Copper,D,20210115,000000,8013.8300500,8035.8763500,7906.9054950,7936.6680000,52571
LME.Copper,D,20210117,000000,7921.2355900,8017.1369950,7845.1758550,8014.9323650,17253
LME.Copper,D,20210118,000000,8013.8300500,8044.6948700,7938.8726300,7946.5888350,33201
LME.Copper,D,20210119,000000,7946.5888350,8054.6157050,7930.0541100,8038.0809800,59238
LME.Copper,D,20210120,000000,8036.9786650,8083.2758950,7971.9420800,8072.2527450,46732
LME.Copper,D,20210121,000000,8071.1504300,8098.7083050,7948.7934650,7973.0443950,52118
LME.Copper,D,20210122,000000,7974.1467100,8016.0346800,7856.1990050,7975.2490250,64233
LME.Copper,D,20210124,000000,7984.0675450,8025.9555150,7981.8629150,8013.8300500,10105
LME.Copper,D,20210125,000000,8012.7277350,8023.7508850,7919.0309600,7955.4073550,56583
LME.Copper,D,20210126,000000,7954.3050400,8028.1601450,7894.7800300,7973.0443950,53122
LME.Copper,D,20210127,000000,7971.9420800,7975.2490250,7761.3999150,7813.2087200,100067
LME.Copper,D,20210128,000000,7813.2087200,7933.3610550,7696.3633300,7831.9480750,98846
LME.Copper,D,20210129,000000,7831.9480750,7964.2258750,7786.7531600,7808.7994600,69094
LME.Copper,D,20210131,000000,7838.5619650,7903.5985500,7772.4230650,7891.4730850,16851
LME.Copper,D,20210201,000000,7891.4730850,7898.0869750,7768.0138050,7816.5156650,60805
LME.Copper,D,20210202,000000,7816.5156650,7817.6179800,7716.2050000,7743.7628750,74828
LME.Copper,D,20210203,000000,7742.6605600,7890.3707700,7729.4327800,7845.1758550,63066
LME.Copper,D,20210204,000000,7845.1758550,7899.1892900,7797.7763100,7874.9383600,53633
LME.Copper,D,20210205,000000,7874.9383600,8024.8532000,7868.3244700,8024.8532000,42842
LME.Copper,D,20210207,000000,8022.6485700,8043.5925550,7986.2721750,7997.2953250,12896
LME.Copper,D,20210208,000000,7997.2953250,8147.2101650,7987.3744900,8146.1078500,62626
LME.Copper,D,20210209,000000,8146.1078500,8323.5805650,8103.1175650,8313.6597300,88454
LME.Copper,D,20210210,000000,8312.5574150,8367.6731650,8267.3625000,8298.2273200,65278
LME.Copper,D,20210211,000000,8298.2273200,8359.9569600,8269.5671300,8329.0921400,46160
LME.Copper,D,20210212,000000,8329.0921400,8388.6171500,8203.4282300,8375.3893700,47154
LME.Copper,D,20210214,000000,8384.2078900,8452.5514200,8366.5708500,8439.3236400,8226
LME.Copper,D,20210215,000000,8438.2213250,8476.8023500,8376.4916850,8411.7657650,27876
LME.Copper,D,20210216,000000,8412.8680800,8473.4954050,8393.0264100,8441.5282700,55683
LME.Copper,D,20210217,000000,8441.5282700,8596.9546850,8364.3662200,8585.9315350,77953
LME.Copper,D,20210218,000000,8585.9315350,8703.8792400,8547.3505100,8702.7769250,108446
LME.Copper,D,20210219,000000,8701.6746100,9019.1413300,8698.3676650,8966.2302100,123990
LME.Copper,D,20210221,000000,8976.1510450,9294.7200800,8965.1278950,9206.5348800,32048
LME.Copper,D,20210222,000000,9205.4325650,9247.3205350,9061.0293000,9064.3362450,9669
