<TICKER>,<PER>,<DATE>,<TIME>,<OPEN>,<HIGH>,<LOW>,<CLOSE>,<VOL>
comex.GC,D,20190222,000000,1328.1000000,1335.6000000,1323.8000000,1330.7000000,203074
comex.GC,D,20190224,000000,1331.9000000,1334.1000000,1329.3000000,1332.8000000,27307
comex.GC,D,20190225,000000,1332.7000000,1334.9000000,1327.3000000,1330.7000000,167448
comex.GC,D,20190226,000000,1330.7000000,1332.0000000,1325.5000000,1329.5000000,158506
comex.GC,D,20190227,000000,1329.5000000,1330.8000000,1318.4000000,1319.8000000,174180
comex.GC,D,20190228,000000,1319.8000000,1328.9000000,1312.6000000,1312.9000000,235910
comex.GC,D,20190301,000000,1312.8000000,1313.5000000,1291.3000000,1294.5000000,278520
comex.GC,D,20190303,000000,1294.4000000,1298.1000000,1294.4000000,1295.2000000,28477
comex.GC,D,20190304,000000,1295.1000000,1295.8000000,1283.8000000,1289.2000000,243719
comex.GC,D,20190305,000000,1289.2000000,1290.3000000,1282.0000000,1289.2000000,194535
comex.GC,D,20190306,000000,1289.2000000,1291.8000000,1284.3000000,1284.9000000,175302
comex.GC,D,20190307,000000,1284.8000000,1291.1000000,1280.8000000,1291.0000000,203490
comex.GC,D,20190308,000000,1291.1000000,1301.3000000,1290.2000000,1298.6000000,222075
comex.GC,D,20190310,000000,1298.2000000,1298.7000000,1295.7000000,1297.6000000,22007
comex.GC,D,20190311,000000,1297.6000000,1299.2000000,1290.6000000,1296.7000000,148199
comex.GC,D,20190312,000000,1296.8000000,1305.8000000,1294.3000000,1304.8000000,166470
comex.GC,D,20190313,000000,1304.9000000,1311.6000000,1302.6000000,1303.0000000,168398
comex.GC,D,20190314,000000,1303.0000000,1304.6000000,1292.5000000,1297.7000000,215293
comex.GC,D,20190315,000000,1297.8000000,1306.3000000,1297.4000000,1302.3000000,156995
comex.GC,D,20190317,000000,1302.0000000,1302.5000000,1298.0000000,1299.5000000,23056
comex.GC,D,20190318,000000,1299.5000000,1307.7000000,1298.2000000,1307.6000000,156054
comex.GC,D,20190319,000000,1307.5000000,1310.8000000,1303.4000000,1304.6000000,178161
comex.GC,D,20190320,000000,1304.6000000,1319.0000000,1298.1000000,1318.7000000,326468
comex.GC,D,20190321,000000,1318.7000000,1320.2000000,1302.8000000,1307.9000000,271601
comex.GC,D,20190322,000000,1307.8000000,1314.7000000,1307.0000000,1313.4000000,185412
comex.GC,D,20190324,000000,1313.3000000,1316.1000000,1310.6000000,1315.4000000,26457
comex.GC,D,20190325,000000,1315.5000000,1324.5000000,1314.6000000,1319.4000000,200812
comex.GC,D,20190326,000000,1319.5000000,1319.5000000,1312.1000000,1314.4000000,202110
comex.GC,D,20190327,000000,1314.4000000,1318.8000000,1306.2000000,1309.6000000,125953
comex.GC,D,20190328,000000,1309.6000000,1311.1000000,1287.7000000,1293.5000000,48617
comex.GC,D,20190329,000000,1293.6000000,1304.6000000,1291.3000000,1297.0000000,226055
comex.GC,D,20190331,000000,1297.2000000,1298.5000000,1294.8000000,1297.6000000,29960
comex.GC,D,20190401,000000,1297.5000000,1301.7000000,1289.7000000,1290.4000000,206749
comex.GC,D,20190402,000000,1290.3000000,1297.7000000,1289.5000000,1297.4000000,182717
comex.GC,D,20190403,000000,1297.4000000,1299.0000000,1292.7000000,1297.0000000,152946
comex.GC,D,20190404,000000,1297.0000000,1298.7000000,1284.9000000,1293.6000000,244094
comex.GC,D,20190405,000000,1293.6000000,1297.4000000,1288.3000000,1295.9000000,200651
comex.GC,D,20190407,000000,1295.8000000,1301.0000000,1295.5000000,1300.4000000,34102
comex.GC,D,20190408,000000,1300.4000000,1307.9000000,1300.0000000,1303.3000000,183448
comex.GC,D,20190409,000000,1303.3000000,1310.4000000,1301.1000000,1306.4000000,180290
comex.GC,D,20190410,000000,1306.4000000,1314.7000000,1304.7000000,1310.9000000,215232
comex.GC,D,20190411,000000,1310.9000000,1312.0000000,1292.9000000,1296.0000000,300709
comex.GC,D,20190412,000000,1296.0000000,1299.1000000,1293.2000000,1293.5000000,157967
comex.GC,D,20190414,000000,1294.0000000,1295.2000000,1289.8000000,1292.0000000,34325
comex.GC,D,20190415,000000,1292.0000000,1293.1000000,1285.3000000,1287.6000000,176399
comex.GC,D,20190416,000000,1287.6000000,1290.3000000,1275.5000000,1279.8000000,305021
comex.GC,D,20190417,000000,1279.8000000,1282.1000000,1273.6000000,1274.1000000,206795
comex.GC,D,20190418,000000,1274.0000000,1279.7000000,1273.0000000,1277.9000000,187220
comex.GC,D,20190421,000000,1278.0000000,1281.9000000,1277.4000000,1281.2000000,28131
comex.GC,D,20190422,000000,1281.2000000,1281.8000000,1275.5000000,1276.3000000,128469
comex.GC,D,20190423,000000,1276.2000000,1276.8000000,1267.9000000,1271.8000000,252267
comex.GC,D,20190424,000000,1271.8000000,1280.7000000,1271.1000000,1277.5000000,233363
comex.GC,D,20190425,000000,1277.5000000,1284.8000000,1276.6000000,1282.1000000,227445
comex.GC,D,20190426,000000,1282.1000000,1290.9000000,1276.0000000,1288.4000000,238096
comex.GC,D,20190428,000000,1289.0000000,1289.1000000,1286.9000000,1287.4000000,19150
comex.GC,D,20190429,000000,1287.3000000,1287.6000000,1279.9000000,1285.4000000,201078
comex.GC,D,20190430,000000,1285.4000000,1288.2000000,1281.0000000,1281.6000000,225460
comex.GC,D,20190501,000000,1281.7000000,1289.4000000,1273.8000000,1275.8000000,269540
comex.GC,D,20190502,000000,1275.8000000,1275.9000000,1267.3000000,1272.9000000,234699
comex.GC,D,20190503,000000,1272.9000000,1283.9000000,1269.0000000,1280.2000000,247150
comex.GC,D,20190505,000000,1281.8000000,1287.4000000,1281.8000000,1283.7000000,58355
comex.GC,D,20190506,000000,1283.7000000,1285.3000000,1278.1000000,1283.9000000,198840
comex.GC,D,20190507,000000,1284.0000000,1288.4000000,1279.1000000,1288.3000000,228191
comex.GC,D,20190508,000000,1288.2000000,1292.8000000,1280.2000000,1283.0000000,266608
comex.GC,D,20190509,000000,1283.1000000,1289.2000000,1280.9000000,1287.4000000,273850
comex.GC,D,20190510,000000,1287.4000000,1290.3000000,1284.0000000,1286.8000000,162005
comex.GC,D,20190512,000000,1288.3000000,1289.2000000,1283.5000000,1284.8000000,30695
comex.GC,D,20190513,000000,1284.8000000,1304.2000000,1282.4000000,1300.2000000,337884
comex.GC,D,20190514,000000,1300.1000000,1300.8000000,1294.3000000,1295.7000000,187828
comex.GC,D,20190515,000000,1295.7000000,1301.7000000,1293.6000000,1296.9000000,222151
comex.GC,D,20190516,000000,1297.0000000,1299.3000000,1284.2000000,1286.6000000,245537
comex.GC,D,20190517,000000,1286.6000000,1289.0000000,1274.6000000,1277.4000000,217420
comex.GC,D,20190519,000000,1277.6000000,1278.7000000,1275.6000000,1276.2000000,24850
comex.GC,D,20190520,000000,1276.2000000,1278.8000000,1273.3000000,1275.2000000,164249
comex.GC,D,20190521,000000,1275.2000000,1276.2000000,1269.0000000,1273.3000000,174036
comex.GC,D,20190522,000000,1273.4000000,1277.1000000,1272.0000000,1272.5000000,154320
comex.GC,D,20190523,000000,1272.5000000,1287.1000000,1272.2000000,1283.2000000,269948
comex.GC,D,20190524,000000,1283.3000000,1284.7000000,1280.1000000,1284.3000000,139915
comex.GC,D,20190526,000000,1283.5000000,1286.9000000,1283.2000000,1286.2000000,17535
comex.GC,D,20190527,000000,1286.3000000,1286.6000000,1281.4000000,1281.8000000,46643
comex.GC,D,20190528,000000,1281.8000000,1284.4000000,1275.1000000,1280.7000000,172287
comex.GC,D,20190529,000000,1280.7000000,1285.2000000,1276.2000000,1276.5000000,105436
comex.GC,D,20190530,000000,1277.0000000,1297.8000000,1273.9000000,1297.3000000,51572
comex.GC,D,20190531,000000,1297.3000000,1311.9000000,1296.5000000,1310.2000000,276916
comex.GC,D,20190602,000000,1312.5000000,1317.8000000,1310.9000000,1317.5000000,43777
comex.GC,D,20190603,000000,1317.5000000,1333.0000000,1314.2000000,1327.9000000,332845
comex.GC,D,20190604,000000,1328.0000000,1334.1000000,1324.7000000,1330.4000000,289970
comex.GC,D,20190605,000000,1330.4000000,1348.9000000,1330.4000000,1335.0000000,389488
comex.GC,D,20190606,000000,1335.0000000,1344.2000000,1334.5000000,1337.1000000,134378
comex.GC,D,20190607,000000,1337.1000000,1352.7000000,1334.3000000,1344.9000000,278246
comex.GC,D,20190609,000000,1341.2000000,1341.7000000,1331.8000000,1332.1000000,53173
comex.GC,D,20190610,000000,1332.1000000,1334.1000000,1329.0000000,1332.7000000,183315
comex.GC,D,20190611,000000,1332.7000000,1337.5000000,1323.6000000,1336.2000000,206365
comex.GC,D,20190612,000000,1336.1000000,1342.3000000,1333.6000000,1338.3000000,222667
comex.GC,D,20190613,000000,1338.4000000,1351.7000000,1337.3000000,1348.8000000,197228
comex.GC,D,20190614,000000,1348.8000000,1362.2000000,1341.4000000,1345.3000000,301680
comex.GC,D,20190616,000000,1345.5000000,1347.1000000,1339.8000000,1344.8000000,39454
comex.GC,D,20190617,000000,1344.8000000,1347.0000000,1336.6000000,1345.4000000,209251
comex.GC,D,20190618,000000,1345.4000000,1358.5000000,1342.7000000,1349.1000000,345743
comex.GC,D,20190619,000000,1349.1000000,1397.7000000,1344.8000000,1382.3000000,391261
comex.GC,D,20190620,000000,1382.4000000,1415.4000000,1381.5000000,1407.5000000,477680
comex.GC,D,20190621,000000,1407.6000000,1409.8000000,1386.1000000,1403.0000000,382955
comex.GC,D,20190623,000000,1403.9000000,1414.8000000,1403.6000000,1406.0000000,77095
comex.GC,D,20190624,000000,1405.9000000,1442.9000000,1404.4000000,1439.5000000,395222
comex.GC,D,20190625,000000,1439.5000000,1439.8000000,1406.6000000,1412.1000000,574856
comex.GC,D,20190626,000000,1412.1000000,1418.9000000,1405.0000000,1409.5000000,369052
comex.GC,D,20190627,000000,1409.4000000,1427.8000000,1401.4000000,1422.3000000,329515
comex.GC,D,20190628,000000,1422.3000000,1424.8000000,1408.6000000,1412.5000000,220829
comex.GC,D,20190630,000000,1401.8000000,1401.9000000,1387.0000000,1395.3000000,76488
comex.GC,D,20190701,000000,1395.4000000,1399.4000000,1384.7000000,1393.4000000,328292
comex.GC,D,20190702,000000,1393.4000000,1441.0000000,1391.6000000,1429.8000000,425317
comex.GC,D,20190703,000000,1429.8000000,1431.6000000,1414.7000000,1421.6000000,299489
comex.GC,D,20190704,000000,1421.6000000,1426.8000000,1412.7000000,1420.0000000,126360
comex.GC,D,20190705,000000,1420.0000000,1420.8000000,1388.6000000,1401.2000000,375806
comex.GC,D,20190707,000000,1401.0000000,1404.0000000,1395.0000000,1401.8000000,41672
comex.GC,D,20190708,000000,1401.8000000,1409.9000000,1392.7000000,1398.1000000,254883
comex.GC,D,20190709,000000,1398.1000000,1402.4000000,1387.5000000,1395.3000000,246719
comex.GC,D,20190710,000000,1395.2000000,1429.4000000,1391.8000000,1426.4000000,420392
comex.GC,D,20190711,000000,1426.5000000,1427.1000000,1402.7000000,1409.4000000,307044
comex.GC,D,20190712,000000,1409.3000000,1418.9000000,1404.5000000,1417.8000000,213837
comex.GC,D,20190714,000000,1417.7000000,1421.6000000,1411.2000000,1413.2000000,44503
comex.GC,D,20190715,000000,1413.3000000,1420.0000000,1409.3000000,1415.7000000,208112
comex.GC,D,20190716,000000,1415.8000000,1418.0000000,1402.2000000,1406.5000000,301273
comex.GC,D,20190717,000000,1406.6000000,1431.9000000,1401.3000000,1424.5000000,357939
comex.GC,D,20190718,000000,1424.4000000,1454.4000000,1415.6000000,1443.5000000,463632
comex.GC,D,20190719,000000,1443.5000000,1445.3000000,1421.1000000,1426.5000000,393361
comex.GC,D,20190721,000000,1428.5000000,1429.6000000,1423.0000000,1428.4000000,42787
comex.GC,D,20190722,000000,1428.4000000,1430.8000000,1416.4000000,1417.1000000,242254
comex.GC,D,20190723,000000,1417.2000000,1431.4000000,1414.6000000,1420.5000000,306069
comex.GC,D,20190724,000000,1420.5000000,1430.0000000,1418.7000000,1422.4000000,262557
comex.GC,D,20190725,000000,1422.4000000,1434.1000000,1411.1000000,1415.7000000,385375
comex.GC,D,20190726,000000,1415.7000000,1424.8000000,1412.9000000,1418.5000000,211915
comex.GC,D,20190728,000000,1419.0000000,1424.1000000,1418.1000000,1419.9000000,18434
comex.GC,D,20190729,000000,1419.8000000,1428.0000000,1414.4000000,1424.9000000,127673
comex.GC,D,20190730,000000,1425.0000000,1444.4000000,1422.7000000,1441.5000000,44951
comex.GC,D,20190731,000000,1441.4000000,1447.0000000,1416.0000000,1421.3000000,357222
comex.GC,D,20190801,000000,1421.3000000,1461.9000000,1412.1000000,1444.6000000,523989
comex.GC,D,20190802,000000,1444.5000000,1460.2000000,1443.0000000,1452.5000000,356861
comex.GC,D,20190804,000000,1451.2000000,1468.3000000,1448.8000000,1465.3000000,113366
comex.GC,D,20190805,000000,1465.3000000,1486.8000000,1462.9000000,1475.0000000,499045
comex.GC,D,20190806,000000,1475.0000000,1502.3000000,1470.3000000,1496.9000000,363640
comex.GC,D,20190807,000000,1496.9000000,1522.7000000,1493.4000000,1512.9000000,554151
comex.GC,D,20190808,000000,1512.8000000,1521.3000000,1501.6000000,1518.0000000,350529
comex.GC,D,20190809,000000,1517.9000000,1519.8000000,1506.2000000,1508.0000000,259323
comex.GC,D,20190811,000000,1509.2000000,1512.9000000,1505.2000000,1508.0000000,30922
comex.GC,D,20190812,000000,1508.1000000,1531.5000000,1498.6000000,1527.2000000,355508
comex.GC,D,20190813,000000,1527.1000000,1546.1000000,1490.0000000,1508.6000000,485471
comex.GC,D,20190814,000000,1508.5000000,1534.9000000,1507.2000000,1531.4000000,452131
comex.GC,D,20190815,000000,1531.3000000,1538.6000000,1518.3000000,1532.3000000,396268
comex.GC,D,20190816,000000,1532.4000000,1532.8000000,1513.9000000,1523.6000000,254573
comex.GC,D,20190818,000000,1523.0000000,1523.6000000,1515.2000000,1519.4000000,49546
comex.GC,D,20190819,000000,1519.3000000,1520.0000000,1503.0000000,1505.2000000,262409
comex.GC,D,20190820,000000,1505.2000000,1518.8000000,1505.2000000,1513.2000000,230447
comex.GC,D,20190821,000000,1513.3000000,1517.6000000,1506.5000000,1509.4000000,234142
comex.GC,D,20190822,000000,1509.5000000,1514.4000000,1502.1000000,1504.6000000,256680
comex.GC,D,20190823,000000,1504.6000000,1540.3000000,1503.0000000,1536.9000000,368896
comex.GC,D,20190825,000000,1545.4000000,1565.0000000,1545.4000000,1553.1000000,113616
comex.GC,D,20190826,000000,1553.1000000,1554.3000000,1534.8000000,1537.3000000,317597
comex.GC,D,20190827,000000,1537.3000000,1554.5000000,1537.2000000,1544.9000000,357212
comex.GC,D,20190828,000000,1544.9000000,1556.6000000,1543.3000000,1552.4000000,296202
comex.GC,D,20190829,000000,1552.4000000,1559.8000000,1528.6000000,1534.8000000,434448
comex.GC,D,20190830,000000,1534.8000000,1541.9000000,1525.6000000,1529.2000000,263015
comex.GC,D,20190901,000000,1535.2000000,1544.5000000,1531.6000000,1534.5000000,44787
comex.GC,D,20190902,000000,1534.5000000,1540.5000000,1528.0000000,1533.2000000,125198
comex.GC,D,20190903,000000,1533.2000000,1559.2000000,1532.8000000,1551.3000000,408008
comex.GC,D,20190904,000000,1551.3000000,1566.2000000,1542.6000000,1553.2000000,406789
comex.GC,D,20190905,000000,1553.2000000,1558.9000000,1514.3000000,1526.5000000,541135
comex.GC,D,20190906,000000,1526.6000000,1536.2000000,1510.7000000,1515.0000000,462664
comex.GC,D,20190908,000000,1516.4000000,1520.7000000,1511.5000000,1517.6000000,49772
comex.GC,D,20190909,000000,1517.6000000,1523.8000000,1494.3000000,1497.8000000,332782
comex.GC,D,20190910,000000,1497.8000000,1509.1000000,1492.1000000,1498.8000000,341575
comex.GC,D,20190911,000000,1498.9000000,1506.3000000,1494.6000000,1503.6000000,300523
comex.GC,D,20190912,000000,1503.6000000,1532.2000000,1502.7000000,1505.4000000,419551
comex.GC,D,20190913,000000,1505.4000000,1516.6000000,1493.1000000,1495.7000000,325240
comex.GC,D,20190915,000000,1513.1000000,1519.7000000,1506.3000000,1511.9000000,95075
comex.GC,D,20190916,000000,1511.8000000,1514.7000000,1503.4000000,1505.5000000,282517
comex.GC,D,20190917,000000,1505.5000000,1515.0000000,1500.9000000,1510.1000000,297686
comex.GC,D,20190918,000000,1510.1000000,1519.5000000,1490.7000000,1502.7000000,368065
comex.GC,D,20190919,000000,1502.8000000,1513.2000000,1500.9000000,1511.9000000,257671
comex.GC,D,20190920,000000,1512.0000000,1524.5000000,1505.9000000,1524.4000000,236114
comex.GC,D,20190922,000000,1521.5000000,1527.0000000,1517.9000000,1522.7000000,54148
comex.GC,D,20190923,000000,1522.7000000,1534.4000000,1518.9000000,1527.6000000,312146
comex.GC,D,20190924,000000,1527.6000000,1543.3000000,1522.8000000,1536.4000000,393958
comex.GC,D,20190925,000000,1536.4000000,1540.3000000,1507.4000000,1516.6000000,415679
comex.GC,D,20190926,000000,1516.6000000,1519.5000000,1507.1000000,1513.8000000,332605
comex.GC,D,20190927,000000,1513.7000000,1514.0000000,1493.3000000,1503.3000000,363284
comex.GC,D,20190929,000000,1501.7000000,1507.2000000,1497.5000000,1500.1000000,37693
comex.GC,D,20190930,000000,1500.1000000,1500.9000000,1468.6000000,1472.2000000,407880
comex.GC,D,20191001,000000,1472.3000000,1493.5000000,1465.0000000,1482.3000000,384860
comex.GC,D,20191002,000000,1482.3000000,1511.3000000,1480.5000000,1504.5000000,373742
comex.GC,D,20191003,000000,1504.5000000,1525.7000000,1501.7000000,1513.7000000,322710
comex.GC,D,20191004,000000,1513.7000000,1522.2000000,1501.4000000,1510.3000000,297174
comex.GC,D,20191006,000000,1518.6000000,1518.8000000,1511.0000000,1511.3000000,23168
comex.GC,D,20191007,000000,1511.3000000,1513.4000000,1492.1000000,1496.5000000,249841
comex.GC,D,20191008,000000,1496.5000000,1515.3000000,1493.9000000,1511.4000000,325886
comex.GC,D,20191009,000000,1511.5000000,1522.3000000,1505.1000000,1513.5000000,319719
comex.GC,D,20191010,000000,1513.5000000,1516.6000000,1495.3000000,1499.8000000,335126
comex.GC,D,20191011,000000,1499.8000000,1508.0000000,1478.0000000,1493.5000000,386903
comex.GC,D,20191013,000000,1492.0000000,1493.4000000,1487.1000000,1491.1000000,34991
comex.GC,D,20191014,000000,1491.0000000,1501.5000000,1489.9000000,1497.8000000,208204
comex.GC,D,20191015,000000,1497.8000000,1503.0000000,1480.8000000,1487.9000000,283407
comex.GC,D,20191016,000000,1487.9000000,1496.8000000,1480.6000000,1491.3000000,326195
comex.GC,D,20191017,000000,1491.2000000,1501.1000000,1487.0000000,1495.1000000,280347
comex.GC,D,20191018,000000,1495.1000000,1497.0000000,1488.3000000,1493.4000000,194910
comex.GC,D,20191020,000000,1495.6000000,1496.0000000,1492.6000000,1493.0000000,19213
comex.GC,D,20191021,000000,1493.0000000,1498.7000000,1484.0000000,1487.5000000,265119
comex.GC,D,20191022,000000,1487.6000000,1493.7000000,1485.7000000,1492.8000000,189719
comex.GC,D,20191023,000000,1492.7000000,1499.4000000,1491.1000000,1495.5000000,222701
comex.GC,D,20191024,000000,1495.4000000,1506.9000000,1490.4000000,1505.6000000,282708
comex.GC,D,20191025,000000,1505.7000000,1520.9000000,1503.1000000,1507.1000000,327750
comex.GC,D,20191027,000000,1507.4000000,1508.8000000,1504.7000000,1506.3000000,21988
comex.GC,D,20191028,000000,1506.2000000,1510.8000000,1492.3000000,1494.0000000,305484
comex.GC,D,20191029,000000,1494.1000000,1497.1000000,1485.6000000,1491.4000000,247035
comex.GC,D,20191030,000000,1491.3000000,1501.8000000,1483.1000000,1499.3000000,320620
comex.GC,D,20191031,000000,1499.2000000,1516.7000000,1499.0000000,1513.0000000,347561
comex.GC,D,20191101,000000,1513.0000000,1519.0000000,1505.4000000,1516.7000000,308624
comex.GC,D,20191103,000000,1516.4000000,1516.5000000,1512.7000000,1513.8000000,22908
comex.GC,D,20191104,000000,1513.7000000,1517.1000000,1506.5000000,1508.7000000,233872
comex.GC,D,20191105,000000,1508.7000000,1509.8000000,1480.7000000,1485.6000000,431767
comex.GC,D,20191106,000000,1485.6000000,1495.9000000,1484.3000000,1492.2000000,250870
comex.GC,D,20191107,000000,1492.2000000,1493.6000000,1461.4000000,1469.6000000,513918
comex.GC,D,20191108,000000,1469.6000000,1473.9000000,1457.0000000,1459.8000000,313183
comex.GC,D,20191110,000000,1460.0000000,1464.6000000,1459.5000000,1463.3000000,30918
comex.GC,D,20191111,000000,1463.2000000,1467.4000000,1448.9000000,1453.2000000,257142
comex.GC,D,20191112,000000,1453.3000000,1462.5000000,1446.2000000,1462.0000000,338847
comex.GC,D,20191113,000000,1462.0000000,1467.9000000,1458.5000000,1466.4000000,292374
comex.GC,D,20191114,000000,1466.4000000,1475.3000000,1463.8000000,1464.5000000,284511
comex.GC,D,20191115,000000,1464.5000000,1469.8000000,1462.8000000,1468.7000000,178162
comex.GC,D,20191117,000000,1467.8000000,1470.2000000,1467.8000000,1469.6000000,2698
comex.GC,D,20191118,000000,1469.6000000,1474.4000000,1456.6000000,1472.1000000,298142
comex.GC,D,20191119,000000,1472.1000000,1475.8000000,1465.1000000,1474.9000000,266114
comex.GC,D,20191120,000000,1474.9000000,1479.2000000,1466.1000000,1474.7000000,293141
comex.GC,D,20191121,000000,1474.6000000,1475.9000000,1462.4000000,1465.2000000,307663
comex.GC,D,20191122,000000,1465.2000000,1473.4000000,1461.2000000,1461.5000000,242865
comex.GC,D,20191124,000000,1461.0000000,1461.2000000,1459.4000000,1460.3000000,3748
comex.GC,D,20191125,000000,1460.4000000,1462.0000000,1453.4000000,1453.7000000,209351
comex.GC,D,20191126,000000,1453.6000000,1462.9000000,1449.6000000,1460.4000000,166388
comex.GC,D,20191127,000000,1460.4000000,1461.1000000,1452.0000000,1456.0000000,46133
comex.GC,D,20191128,000000,1455.9000000,1462.7000000,1453.8000000,1462.3000000,4942
comex.GC,D,20191129,000000,1462.3000000,1472.9000000,1459.1000000,1470.4000000,167497
comex.GC,D,20191201,000000,1470.3000000,1470.6000000,1467.8000000,1468.0000000,3003
comex.GC,D,20191202,000000,1467.9000000,1471.6000000,1459.8000000,1468.5000000,267497
comex.GC,D,20191203,000000,1468.5000000,1487.7000000,1465.4000000,1482.4000000,334395
comex.GC,D,20191204,000000,1482.4000000,1489.9000000,1476.7000000,1481.1000000,287962
comex.GC,D,20191205,000000,1481.0000000,1485.7000000,1478.0000000,1481.0000000,222206
comex.GC,D,20191206,000000,1481.0000000,1485.2000000,1463.3000000,1464.5000000,283492
comex.GC,D,20191208,000000,1464.1000000,1464.6000000,1463.0000000,1464.5000000,3596
comex.GC,D,20191209,000000,1464.5000000,1469.8000000,1463.5000000,1465.5000000,154844
comex.GC,D,20191210,000000,1465.4000000,1473.7000000,1464.2000000,1468.3000000,209019
comex.GC,D,20191211,000000,1468.3000000,1483.5000000,1466.9000000,1478.9000000,224493
comex.GC,D,20191212,000000,1479.0000000,1491.6000000,1465.5000000,1469.3000000,333557
comex.GC,D,20191213,000000,1469.5000000,1482.5000000,1469.1000000,1480.3000000,278807
comex.GC,D,20191215,000000,1480.0000000,1480.8000000,1478.1000000,1478.4000000,2717
comex.GC,D,20191216,000000,1478.5000000,1484.5000000,1477.4000000,1479.6000000,157825
comex.GC,D,20191217,000000,1479.7000000,1484.9000000,1478.4000000,1480.0000000,155558
comex.GC,D,20191218,000000,1479.9000000,1483.6000000,1474.3000000,1479.9000000,185826
comex.GC,D,20191219,000000,1479.8000000,1485.8000000,1477.1000000,1482.4000000,182848
comex.GC,D,20191220,000000,1482.3000000,1484.8000000,1479.5000000,1482.4000000,134823
comex.GC,D,20191222,000000,1482.4000000,1482.5000000,1481.2000000,1482.1000000,2021
comex.GC,D,20191223,000000,1482.1000000,1490.1000000,1482.0000000,1489.2000000,153388
comex.GC,D,20191224,000000,1489.3000000,1505.0000000,1488.1000000,1504.4000000,166823
comex.GC,D,20191225,000000,1503.9000000,1504.8000000,1502.1000000,1504.0000000,3348
comex.GC,D,20191226,000000,1504.1000000,1517.4000000,1502.3000000,1515.7000000,206033
comex.GC,D,20191227,000000,1515.8000000,1519.9000000,1512.1000000,1515.6000000,183744
comex.GC,D,20191229,000000,1515.9000000,1517.5000000,1515.3000000,1517.0000000,4232
comex.GC,D,20191230,000000,1517.0000000,1519.1000000,1513.5000000,1517.8000000,159729
comex.GC,D,20191231,000000,1517.8000000,1529.0000000,1517.7000000,1520.0000000,194278
comex.GC,D,20200101,000000,1521.0000000,1524.0000000,1520.5000000,1521.0000000,5291
comex.GC,D,20200102,000000,1520.9000000,1534.0000000,1519.7000000,1531.3000000,236447
comex.GC,D,20200103,000000,1531.3000000,1556.6000000,1531.3000000,1555.2000000,383128
comex.GC,D,20200105,000000,1562.7000000,1590.9000000,1562.3000000,1571.6000000,42728
comex.GC,D,20200106,000000,1571.5000000,1582.5000000,1562.7000000,1565.7000000,452446
comex.GC,D,20200107,000000,1565.8000000,1600.0000000,1557.0000000,1596.7000000,401519
comex.GC,D,20200108,000000,1596.6000000,1613.3000000,1553.4000000,1559.0000000,670982
comex.GC,D,20200109,000000,1559.0000000,1562.4000000,1541.0000000,1553.6000000,325402
comex.GC,D,20200110,000000,1553.6000000,1564.1000000,1546.7000000,1563.2000000,288425
comex.GC,D,20200112,000000,1563.0000000,1563.1000000,1558.9000000,1560.1000000,4959
comex.GC,D,20200113,000000,1560.3000000,1561.0000000,1545.4000000,1545.8000000,216256
comex.GC,D,20200114,000000,1545.7000000,1550.6000000,1536.4000000,1550.0000000,284252
comex.GC,D,20200115,000000,1550.1000000,1558.8000000,1546.7000000,1556.4000000,258432
comex.GC,D,20200116,000000,1556.4000000,1558.2000000,1548.0000000,1552.3000000,226927
comex.GC,D,20200117,000000,1552.4000000,1561.4000000,1549.3000000,1557.3000000,223962
comex.GC,D,20200119,000000,1557.3000000,1559.1000000,1555.9000000,1557.1000000,3400
comex.GC,D,20200120,000000,1557.1000000,1562.7000000,1556.6000000,1561.3000000,68128
comex.GC,D,20200121,000000,1561.2000000,1568.8000000,1546.0000000,1556.3000000,328460
comex.GC,D,20200122,000000,1556.3000000,1563.3000000,1550.0000000,1561.0000000,215791
comex.GC,D,20200123,000000,1561.0000000,1567.5000000,1551.3000000,1560.3000000,283759
comex.GC,D,20200124,000000,1560.3000000,1575.3000000,1555.8000000,1571.3000000,310604
comex.GC,D,20200126,000000,1580.5000000,1588.4000000,1578.7000000,1582.1000000,25447
comex.GC,D,20200127,000000,1582.0000000,1585.8000000,1575.3000000,1580.3000000,276080
comex.GC,D,20200128,000000,1580.3000000,1582.2000000,1564.6000000,1567.5000000,244763
comex.GC,D,20200129,000000,1567.4000000,1577.7000000,1562.0000000,1576.7000000,132725
comex.GC,D,20200130,000000,1576.6000000,1585.0000000,1571.5000000,1579.7000000,29743
comex.GC,D,20200131,000000,1579.7000000,1595.5000000,1575.0000000,1593.6000000,275509
comex.GC,D,20200202,000000,1597.8000000,1598.5000000,1592.0000000,1593.9000000,12266
comex.GC,D,20200203,000000,1593.9000000,1594.5000000,1573.3000000,1583.1000000,266834
comex.GC,D,20200204,000000,1583.0000000,1584.5000000,1552.8000000,1557.8000000,313445
comex.GC,D,20200205,000000,1557.8000000,1566.2000000,1551.1000000,1559.7000000,269458
comex.GC,D,20200206,000000,1559.7000000,1571.9000000,1556.0000000,1569.3000000,209134
comex.GC,D,20200207,000000,1569.3000000,1577.7000000,1563.6000000,1573.8000000,249531
comex.GC,D,20200209,000000,1575.8000000,1580.2000000,1572.6000000,1578.3000000,10584
comex.GC,D,20200210,000000,1578.3000000,1580.5000000,1571.5000000,1575.4000000,172597
comex.GC,D,20200211,000000,1575.5000000,1577.5000000,1565.2000000,1570.3000000,210681
comex.GC,D,20200212,000000,1570.3000000,1574.4000000,1564.4000000,1572.8000000,171920
comex.GC,D,20200213,000000,1572.8000000,1581.7000000,1572.0000000,1580.4000000,245995
comex.GC,D,20200214,000000,1580.3000000,1588.2000000,1576.0000000,1586.9000000,201232
comex.GC,D,20200216,000000,1585.1000000,1586.2000000,1583.3000000,1586.0000000,4547
comex.GC,D,20200217,000000,1586.1000000,1589.0000000,1581.8000000,1587.0000000,68359
comex.GC,D,20200218,000000,1587.1000000,1608.2000000,1587.0000000,1603.7000000,303905
comex.GC,D,20200219,000000,1603.8000000,1615.9000000,1602.4000000,1613.0000000,293319
comex.GC,D,20200220,000000,1613.1000000,1626.5000000,1606.6000000,1624.8000000,362618
comex.GC,D,20200221,000000,1624.9000000,1652.1000000,1621.6000000,1645.9000000,421682
comex.GC,D,20200223,000000,1656.0000000,1684.1000000,1654.6000000,1668.2000000,38986
comex.GC,D,20200224,000000,1668.2000000,1691.7000000,1652.8000000,1656.1000000,556253
comex.GC,D,20200225,000000,1656.0000000,1661.0000000,1627.0000000,1641.9000000,531146
comex.GC,D,20200226,000000,1641.8000000,1657.1000000,1626.7000000,1645.5000000,419059
comex.GC,D,20200227,000000,1645.3000000,1662.3000000,1636.7000000,1647.3000000,385213
comex.GC,D,20200228,000000,1647.2000000,1649.8000000,1564.0000000,1587.3000000,453632
comex.GC,D,20200301,000000,1592.8000000,1594.3000000,1576.3000000,1586.1000000,15270
comex.GC,D,20200302,000000,1585.9000000,1612.1000000,1582.5000000,1592.9000000,340417
comex.GC,D,20200303,000000,1592.7000000,1654.3000000,1590.9000000,1646.8000000,252731
comex.GC,D,20200304,000000,1646.8000000,1650.6000000,1632.6000000,1637.4000000,244352
comex.GC,D,20200305,000000,1637.2000000,1675.7000000,1636.2000000,1675.3000000,275354
comex.GC,D,20200306,000000,1675.2000000,1692.8000000,1645.4000000,1674.2000000,409983
comex.GC,D,20200308,000000,1692.6000000,1704.3000000,1680.4000000,1701.2000000,37354
comex.GC,D,20200309,000000,1701.2000000,1704.0000000,1658.0000000,1666.8000000,319380
comex.GC,D,20200310,000000,1666.6000000,1671.7000000,1641.7000000,1652.4000000,203080
comex.GC,D,20200311,000000,1652.4000000,1671.8000000,1632.7000000,1643.4000000,184978
comex.GC,D,20200312,000000,1643.3000000,1651.0000000,1560.6000000,1576.7000000,276907
comex.GC,D,20200313,000000,1576.4000000,1597.9000000,1504.1000000,1528.9000000,254854
comex.GC,D,20200315,000000,1563.8000000,1574.8000000,1539.8000000,1557.5000000,36931
comex.GC,D,20200316,000000,1557.5000000,1560.8000000,1450.9000000,1507.2000000,364779
comex.GC,D,20200317,000000,1507.0000000,1554.3000000,1465.6000000,1538.3000000,258610
comex.GC,D,20200318,000000,1538.3000000,1540.6000000,1473.8000000,1499.6000000,263613
comex.GC,D,20200319,000000,1499.8000000,1500.4000000,1457.5000000,1474.1000000,174688
comex.GC,D,20200320,000000,1474.1000000,1519.4000000,1473.5000000,1501.1000000,162978
comex.GC,D,20200322,000000,1505.0000000,1510.7000000,1484.6000000,1493.9000000,19543
comex.GC,D,20200323,000000,1493.8000000,1576.0000000,1488.2000000,1575.5000000,172481
comex.GC,D,20200324,000000,1575.7000000,1699.3000000,1569.4000000,1692.3000000,267691
comex.GC,D,20200325,000000,1692.2000000,1694.5000000,1615.2000000,1638.4000000,157816
comex.GC,D,20200326,000000,1638.6000000,1672.5000000,1611.0000000,1636.6000000,132311
comex.GC,D,20200327,000000,1636.5000000,1647.2000000,1611.5000000,1630.6000000,47506
comex.GC,D,20200329,000000,1641.2000000,1652.8000000,1634.4000000,1642.6000000,639
comex.GC,D,20200330,000000,1642.6000000,1645.6000000,1607.2000000,1638.2000000,7593
comex.GC,D,20200331,000000,1638.3000000,1642.0000000,1576.0000000,1592.2000000,140083
comex.GC,D,20200401,000000,1592.0000000,1612.4000000,1581.2000000,1604.9000000,126336
comex.GC,D,20200402,000000,1605.0000000,1645.6000000,1595.2000000,1637.0000000,127043
comex.GC,D,20200403,000000,1636.7000000,1652.1000000,1624.4000000,1648.8000000,114515
comex.GC,D,20200405,000000,1647.7000000,1651.6000000,1639.3000000,1651.0000000,6465
comex.GC,D,20200406,000000,1651.1000000,1742.6000000,1638.2000000,1728.0000000,163654
comex.GC,D,20200407,000000,1727.6000000,1734.5000000,1672.0000000,1679.2000000,153614
comex.GC,D,20200408,000000,1679.0000000,1695.8000000,1670.7000000,1680.5000000,110585
comex.GC,D,20200409,000000,1680.4000000,1754.5000000,1680.0000000,1740.6000000,165484
comex.GC,D,20200412,000000,1742.3000000,1747.7000000,1731.8000000,1738.7000000,7817
comex.GC,D,20200413,000000,1738.6000000,1772.8000000,1724.2000000,1768.2000000,147213
comex.GC,D,20200414,000000,1768.0000000,1788.8000000,1747.1000000,1751.3000000,195347
comex.GC,D,20200415,000000,1751.3000000,1759.8000000,1731.6000000,1742.4000000,161657
comex.GC,D,20200416,000000,1742.5000000,1768.0000000,1716.4000000,1730.8000000,183636
comex.GC,D,20200417,000000,1731.0000000,1736.5000000,1691.2000000,1694.5000000,184135
comex.GC,D,20200419,000000,1693.0000000,1697.1000000,1686.2000000,1689.5000000,6820
comex.GC,D,20200420,000000,1689.7000000,1718.4000000,1685.0000000,1706.3000000,165724
comex.GC,D,20200421,000000,1706.5000000,1718.0000000,1666.2000000,1706.0000000,204905
comex.GC,D,20200422,000000,1705.9000000,1742.4000000,1695.4000000,1735.1000000,173349
comex.GC,D,20200423,000000,1735.1000000,1764.2000000,1730.6000000,1748.6000000,168285
comex.GC,D,20200424,000000,1748.4000000,1760.2000000,1725.4000000,1745.7000000,158106
comex.GC,D,20200426,000000,1745.0000000,1745.8000000,1737.1000000,1743.4000000,4599
comex.GC,D,20200427,000000,1743.3000000,1745.8000000,1717.0000000,1720.5000000,134665
comex.GC,D,20200428,000000,1720.5000000,1731.9000000,1704.1000000,1720.1000000,157994
comex.GC,D,20200429,000000,1720.1000000,1733.5000000,1708.2000000,1729.8000000,154434
comex.GC,D,20200430,000000,1729.6000000,1737.0000000,1687.5000000,1695.6000000,200183
comex.GC,D,20200501,000000,1695.7000000,1714.4000000,1676.0000000,1710.2000000,154314
comex.GC,D,20200503,000000,1711.2000000,1711.7000000,1700.3000000,1707.1000000,6868
comex.GC,D,20200504,000000,1707.1000000,1726.0000000,1702.3000000,1711.8000000,132696
comex.GC,D,20200505,000000,1711.7000000,1717.8000000,1695.4000000,1712.5000000,166637
comex.GC,D,20200506,000000,1712.4000000,1716.6000000,1683.0000000,1692.2000000,179889
comex.GC,D,20200507,000000,1692.2000000,1733.2000000,1686.8000000,1724.7000000,200777
comex.GC,D,20200508,000000,1724.8000000,1735.5000000,1703.1000000,1704.8000000,185300
comex.GC,D,20200510,000000,1706.0000000,1711.3000000,1704.5000000,1708.7000000,5557
comex.GC,D,20200511,000000,1708.6000000,1713.8000000,1692.1000000,1699.4000000,148010
comex.GC,D,20200512,000000,1699.5000000,1716.7000000,1693.5000000,1705.7000000,139741
comex.GC,D,20200513,000000,1705.6000000,1727.9000000,1701.6000000,1726.5000000,176294
comex.GC,D,20200514,000000,1726.6000000,1746.5000000,1716.0000000,1742.1000000,192669
comex.GC,D,20200515,000000,1742.1000000,1761.2000000,1736.8000000,1754.1000000,178583
comex.GC,D,20200517,000000,1757.5000000,1768.3000000,1755.2000000,1766.5000000,12536
comex.GC,D,20200518,000000,1766.4000000,1775.8000000,1729.4000000,1736.9000000,241972
comex.GC,D,20200519,000000,1737.0000000,1751.6000000,1727.2000000,1749.6000000,166639
comex.GC,D,20200520,000000,1749.5000000,1757.6000000,1744.0000000,1749.8000000,153438
comex.GC,D,20200521,000000,1749.7000000,1749.7000000,1715.3000000,1725.5000000,187269
comex.GC,D,20200522,000000,1725.6000000,1742.0000000,1722.5000000,1734.7000000,141535
comex.GC,D,20200524,000000,1734.8000000,1736.9000000,1729.6000000,1730.6000000,2341
comex.GC,D,20200525,000000,1730.6000000,1731.5000000,1718.0000000,1727.1000000,52893
comex.GC,D,20200526,000000,1727.0000000,1737.2000000,1700.0000000,1705.5000000,167758
comex.GC,D,20200527,000000,1705.4000000,1713.2000000,1684.2000000,1707.9000000,94194
comex.GC,D,20200528,000000,1708.2000000,1736.4000000,1705.0000000,1736.2000000,9850
comex.GC,D,20200529,000000,1736.2000000,1754.5000000,1725.3000000,1743.0000000,137062
comex.GC,D,20200531,000000,1751.7000000,1758.6000000,1748.9000000,1755.2000000,6304
comex.GC,D,20200601,000000,1755.2000000,1761.0000000,1737.6000000,1755.2000000,138863
comex.GC,D,20200602,000000,1755.2000000,1757.0000000,1728.0000000,1733.2000000,168306
comex.GC,D,20200603,000000,1733.1000000,1733.8000000,1690.3000000,1703.1000000,243416
comex.GC,D,20200604,000000,1703.1000000,1729.0000000,1698.9000000,1718.7000000,189924
comex.GC,D,20200605,000000,1718.6000000,1723.2000000,1671.7000000,1688.6000000,261311
comex.GC,D,20200607,000000,1686.7000000,1688.2000000,1680.7000000,1684.6000000,5253
comex.GC,D,20200608,000000,1684.7000000,1707.6000000,1684.6000000,1703.8000000,146647
comex.GC,D,20200609,000000,1703.8000000,1729.4000000,1697.6000000,1719.4000000,174143
comex.GC,D,20200610,000000,1719.4000000,1749.8000000,1714.1000000,1744.4000000,192633
comex.GC,D,20200611,000000,1744.5000000,1754.9000000,1727.5000000,1733.2000000,191423
comex.GC,D,20200612,000000,1733.5000000,1753.0000000,1728.2000000,1737.3000000,140275
comex.GC,D,20200614,000000,1740.7000000,1743.8000000,1735.8000000,1740.9000000,4432
comex.GC,D,20200615,000000,1740.8000000,1742.2000000,1706.2000000,1730.5000000,191539
comex.GC,D,20200616,000000,1730.5000000,1739.5000000,1721.8000000,1734.7000000,124318
comex.GC,D,20200617,000000,1734.5000000,1739.3000000,1717.3000000,1737.0000000,131227
comex.GC,D,20200618,000000,1736.9000000,1749.2000000,1722.7000000,1730.6000000,149006
comex.GC,D,20200619,000000,1730.6000000,1760.9000000,1729.9000000,1756.2000000,167012
comex.GC,D,20200621,000000,1765.8000000,1766.2000000,1759.4000000,1762.5000000,9063
comex.GC,D,20200622,000000,1762.4000000,1779.0000000,1753.5000000,1767.2000000,210176
comex.GC,D,20200623,000000,1767.2000000,1787.0000000,1758.3000000,1784.9000000,187995
comex.GC,D,20200624,000000,1784.8000000,1796.1000000,1764.1000000,1771.6000000,225654
comex.GC,D,20200625,000000,1771.6000000,1779.6000000,1764.5000000,1775.8000000,141362
comex.GC,D,20200626,000000,1775.7000000,1786.2000000,1754.0000000,1784.8000000,189230
comex.GC,D,20200628,000000,1789.2000000,1790.4000000,1784.1000000,1784.8000000,6683
comex.GC,D,20200629,000000,1784.9000000,1789.4000000,1776.5000000,1784.8000000,119776
comex.GC,D,20200630,000000,1784.8000000,1804.0000000,1774.8000000,1799.4000000,184308
comex.GC,D,20200701,000000,1799.3000000,1807.7000000,1767.9000000,1778.3000000,250189
comex.GC,D,20200702,000000,1778.1000000,1791.7000000,1766.3000000,1787.0000000,171962
comex.GC,D,20200703,000000,1786.8000000,1788.9000000,1783.4000000,1787.3000000,38701
comex.GC,D,20200705,000000,1787.0000000,1788.8000000,1785.3000000,1786.4000000,2250
comex.GC,D,20200706,000000,1786.5000000,1799.0000000,1779.2000000,1794.9000000,133063
comex.GC,D,20200707,000000,1794.9000000,1810.8000000,1781.2000000,1807.1000000,205296
comex.GC,D,20200708,000000,1807.2000000,1829.8000000,1803.8000000,1818.4000000,193769
comex.GC,D,20200709,000000,1818.3000000,1825.5000000,1799.6000000,1808.9000000,233055
comex.GC,D,20200710,000000,1808.9000000,1817.0000000,1796.5000000,1801.8000000,181794
comex.GC,D,20200712,000000,1803.4000000,1806.0000000,1802.1000000,1803.9000000,4425
comex.GC,D,20200713,000000,1803.9000000,1818.7000000,1802.8000000,1804.9000000,166602
comex.GC,D,20200714,000000,1804.9000000,1815.0000000,1791.1000000,1812.7000000,210558
comex.GC,D,20200715,000000,1813.1000000,1819.5000000,1804.0000000,1815.9000000,167799
comex.GC,D,20200716,000000,1815.9000000,1816.2000000,1794.1000000,1798.1000000,178604
comex.GC,D,20200717,000000,1798.1000000,1813.9000000,1795.2000000,1812.1000000,149538
comex.GC,D,20200719,000000,1812.3000000,1812.5000000,1809.8000000,1810.3000000,3442
comex.GC,D,20200720,000000,1810.3000000,1823.4000000,1806.6000000,1819.3000000,159696
comex.GC,D,20200721,000000,1819.3000000,1848.8000000,1817.2000000,1844.8000000,253937
comex.GC,D,20200722,000000,1844.8000000,1874.5000000,1844.4000000,1869.0000000,346640
comex.GC,D,20200723,000000,1869.1000000,1897.7000000,1863.1000000,1883.3000000,355248
comex.GC,D,20200724,000000,1883.4000000,1904.6000000,1880.5000000,1900.3000000,242337
comex.GC,D,20200726,000000,1901.2000000,1911.9000000,1899.0000000,1910.8000000,21978
comex.GC,D,20200727,000000,1910.8000000,1961.8000000,1909.4000000,1959.3000000,346142
comex.GC,D,20200728,000000,1959.1000000,1974.7000000,1900.2000000,1949.7000000,357915
comex.GC,D,20200729,000000,1949.7000000,1974.9000000,1935.2000000,1959.3000000,155651
comex.GC,D,20200730,000000,1959.1000000,1976.6000000,1930.0000000,1973.3000000,20892
comex.GC,D,20200731,000000,1973.3000000,2005.4000000,1972.3000000,1994.0000000,266425
comex.GC,D,20200802,000000,1997.4000000,2009.5000000,1993.6000000,1998.8000000,15112
comex.GC,D,20200803,000000,1998.8000000,1999.2000000,1975.2000000,1991.8000000,160098
comex.GC,D,20200804,000000,1991.6000000,2048.6000000,1982.6000000,2048.3000000,274290
comex.GC,D,20200805,000000,2048.2000000,2070.3000000,2027.5000000,2051.2000000,345429
comex.GC,D,20200806,000000,2051.2000000,2089.2000000,2049.0000000,2082.0000000,307171
comex.GC,D,20200807,000000,2082.1000000,2084.1000000,2024.8000000,2046.1000000,366242
comex.GC,D,20200809,000000,2044.8000000,2047.5000000,2028.7000000,2037.2000000,11690
comex.GC,D,20200810,000000,2037.2000000,2060.8000000,2027.8000000,2038.2000000,236504
comex.GC,D,20200811,000000,2038.1000000,2038.2000000,1911.3000000,1919.1000000,554494
comex.GC,D,20200812,000000,1919.0000000,1961.0000000,1874.2000000,1932.1000000,436434
comex.GC,D,20200813,000000,1932.1000000,1974.8000000,1928.5000000,1965.5000000,342749
comex.GC,D,20200814,000000,1965.6000000,1969.8000000,1939.1000000,1953.7000000,226016
comex.GC,D,20200816,000000,1956.4000000,1959.9000000,1942.4000000,1943.0000000,10064
comex.GC,D,20200817,000000,1942.7000000,2000.8000000,1939.1000000,1992.4000000,274125
comex.GC,D,20200818,000000,1992.7000000,2024.6000000,1985.2000000,2014.4000000,351953
comex.GC,D,20200819,000000,2014.3000000,2015.0000000,1930.5000000,1935.2000000,440751
comex.GC,D,20200820,000000,1935.1000000,1963.1000000,1928.9000000,1960.7000000,363901
comex.GC,D,20200821,000000,1960.5000000,1963.1000000,1916.6000000,1947.4000000,344886
comex.GC,D,20200823,000000,1947.9000000,1949.0000000,1938.1000000,1942.5000000,7690
comex.GC,D,20200824,000000,1942.5000000,1970.3000000,1930.8000000,1936.1000000,276417
comex.GC,D,20200825,000000,1936.2000000,1944.1000000,1919.1000000,1936.1000000,267629
comex.GC,D,20200826,000000,1935.9000000,1963.4000000,1908.4000000,1961.7000000,330812
comex.GC,D,20200827,000000,1961.7000000,1987.0000000,1914.7000000,1933.8000000,453049
comex.GC,D,20200828,000000,1933.6000000,1983.0000000,1928.2000000,1972.6000000,321684
comex.GC,D,20200830,000000,1973.9000000,1985.8000000,1973.4000000,1982.0000000,10921
comex.GC,D,20200831,000000,1982.1000000,1985.5000000,1962.3000000,1974.3000000,231777
comex.GC,D,20200901,000000,1974.2000000,2001.2000000,1969.2000000,1979.5000000,279263
comex.GC,D,20200902,000000,1979.4000000,1980.4000000,1938.9000000,1950.7000000,320290
comex.GC,D,20200903,000000,1950.8000000,1956.6000000,1927.2000000,1934.5000000,295691
comex.GC,D,20200904,000000,1934.6000000,1956.6000000,1921.6000000,1940.9000000,290384
comex.GC,D,20200906,000000,1938.0000000,1944.5000000,1937.6000000,1940.6000000,4643
comex.GC,D,20200907,000000,1940.7000000,1947.5000000,1929.4000000,1937.1000000,93621
comex.GC,D,20200908,000000,1937.1000000,1948.3000000,1911.7000000,1937.0000000,308722
comex.GC,D,20200909,000000,1936.9000000,1959.7000000,1926.3000000,1955.4000000,221232
comex.GC,D,20200910,000000,1955.4000000,1975.2000000,1948.6000000,1952.5000000,254807
comex.GC,D,20200911,000000,1952.4000000,1963.4000000,1944.0000000,1948.1000000,195984
comex.GC,D,20200913,000000,1948.9000000,1951.8000000,1945.2000000,1950.1000000,3568
comex.GC,D,20200914,000000,1950.1000000,1972.5000000,1947.2000000,1966.2000000,187670
comex.GC,D,20200915,000000,1966.1000000,1982.4000000,1955.6000000,1961.5000000,225070
comex.GC,D,20200916,000000,1961.5000000,1983.8000000,1957.2000000,1968.1000000,283854
comex.GC,D,20200917,000000,1968.1000000,1968.3000000,1938.2000000,1954.5000000,257033
comex.GC,D,20200918,000000,1954.5000000,1968.2000000,1951.6000000,1957.1000000,168403
comex.GC,D,20200920,000000,1957.3000000,1958.3000000,1952.5000000,1955.2000000,5228
comex.GC,D,20200921,000000,1955.1000000,1962.9000000,1885.4000000,1922.4000000,371495
comex.GC,D,20200922,000000,1922.3000000,1925.5000000,1898.9000000,1908.8000000,275005
comex.GC,D,20200923,000000,1908.7000000,1909.9000000,1855.1000000,1857.2000000,395593
comex.GC,D,20200924,000000,1857.2000000,1880.9000000,1851.0000000,1872.0000000,312841
comex.GC,D,20200925,000000,1871.9000000,1879.3000000,1854.1000000,1864.3000000,215282
comex.GC,D,20200927,000000,1862.7000000,1869.1000000,1862.3000000,1865.4000000,3812
comex.GC,D,20200928,000000,1865.3000000,1889.5000000,1851.1000000,1887.6000000,225429
comex.GC,D,20200929,000000,1887.4000000,1904.8000000,1880.8000000,1902.1000000,207585
comex.GC,D,20200930,000000,1902.0000000,1908.2000000,1885.8000000,1893.2000000,255101
comex.GC,D,20201001,000000,1893.2000000,1917.9000000,1890.0000000,1909.6000000,255820
comex.GC,D,20201002,000000,1909.5000000,1923.6000000,1895.2000000,1904.1000000,205742
comex.GC,D,20201004,000000,1910.9000000,1910.9000000,1902.6000000,1908.0000000,5959
comex.GC,D,20201005,000000,1908.1000000,1924.9000000,1891.2000000,1918.3000000,170035
comex.GC,D,20201006,000000,1918.2000000,1927.0000000,1878.2000000,1884.6000000,214598
comex.GC,D,20201007,000000,1884.6000000,1902.4000000,1877.1000000,1890.4000000,173116
comex.GC,D,20201008,000000,1890.4000000,1905.3000000,1885.3000000,1899.6000000,174782
comex.GC,D,20201009,000000,1899.3000000,1936.8000000,1899.3000000,1936.3000000,217199
comex.GC,D,20201011,000000,1935.0000000,1939.4000000,1932.4000000,1935.1000000,7747
comex.GC,D,20201012,000000,1934.8000000,1938.0000000,1923.8000000,1929.8000000,148096
comex.GC,D,20201013,000000,1929.8000000,1930.6000000,1889.3000000,1896.5000000,255063
comex.GC,D,20201014,000000,1896.5000000,1917.5000000,1885.0000000,1902.4000000,184626
comex.GC,D,20201015,000000,1902.4000000,1913.7000000,1892.7000000,1910.6000000,199469
comex.GC,D,20201016,000000,1910.6000000,1918.7000000,1901.1000000,1902.9000000,138471
comex.GC,D,20201018,000000,1903.2000000,1906.6000000,1902.1000000,1904.4000000,3485
comex.GC,D,20201019,000000,1904.4000000,1923.4000000,1900.2000000,1906.0000000,147766
comex.GC,D,20201020,000000,1906.1000000,1917.6000000,1896.6000000,1913.9000000,157144
comex.GC,D,20201021,000000,1913.8000000,1936.0000000,1913.1000000,1924.6000000,190587
comex.GC,D,20201022,000000,1924.5000000,1925.2000000,1894.2000000,1907.3000000,200153
comex.GC,D,20201023,000000,1907.3000000,1917.3000000,1895.2000000,1903.4000000,159882
comex.GC,D,20201025,000000,1906.0000000,1906.3000000,1892.5000000,1900.5000000,8429
comex.GC,D,20201026,000000,1900.5000000,1911.1000000,1895.5000000,1904.6000000,152524
comex.GC,D,20201027,000000,1904.5000000,1913.8000000,1898.7000000,1907.7000000,148053
comex.GC,D,20201028,000000,1907.8000000,1912.6000000,1869.1000000,1880.4000000,279833
comex.GC,D,20201029,000000,1880.3000000,1885.1000000,1859.2000000,1868.7000000,211156
comex.GC,D,20201030,000000,1868.6000000,1890.9000000,1863.3000000,1878.8000000,195603
comex.GC,D,20201101,000000,1877.0000000,1879.5000000,1875.2000000,1877.3000000,2915
comex.GC,D,20201102,000000,1877.2000000,1897.2000000,1873.3000000,1895.4000000,152654
comex.GC,D,20201103,000000,1895.4000000,1917.5000000,1887.6000000,1915.7000000,156092
comex.GC,D,20201104,000000,1915.7000000,1917.9000000,1881.8000000,1905.1000000,258179
comex.GC,D,20201105,000000,1905.0000000,1954.3000000,1902.9000000,1947.3000000,266417
comex.GC,D,20201106,000000,1947.5000000,1961.8000000,1937.2000000,1951.5000000,204265
comex.GC,D,20201108,000000,1956.0000000,1961.1000000,1954.5000000,1959.8000000,5258
comex.GC,D,20201109,000000,1959.8000000,1966.1000000,1848.0000000,1870.1000000,290703
comex.GC,D,20201110,000000,1870.1000000,1888.9000000,1865.8000000,1875.5000000,189455
comex.GC,D,20201111,000000,1875.6000000,1882.5000000,1853.9000000,1863.8000000,165721
comex.GC,D,20201112,000000,1863.6000000,1883.0000000,1860.7000000,1874.2000000,162266
comex.GC,D,20201113,000000,1874.1000000,1895.8000000,1872.1000000,1888.2000000,141038
comex.GC,D,20201115,000000,1886.6000000,1890.2000000,1885.5000000,1888.8000000,2381
comex.GC,D,20201116,000000,1888.9000000,1898.0000000,1861.5000000,1888.9000000,194994
comex.GC,D,20201117,000000,1888.8000000,1892.7000000,1876.3000000,1881.4000000,138808
comex.GC,D,20201118,000000,1881.2000000,1884.2000000,1860.3000000,1870.3000000,172432
comex.GC,D,20201119,000000,1870.1000000,1871.5000000,1850.0000000,1861.5000000,185919
comex.GC,D,20201120,000000,1861.7000000,1879.2000000,1859.1000000,1869.6000000,142380
comex.GC,D,20201122,000000,1869.8000000,1871.3000000,1867.3000000,1870.9000000,1583
comex.GC,D,20201123,000000,1870.9000000,1875.0000000,1828.0000000,1833.1000000,233082
comex.GC,D,20201124,000000,1833.1000000,1833.8000000,1797.1000000,1806.7000000,282161
comex.GC,D,20201125,000000,1806.7000000,1816.3000000,1798.6000000,1806.2000000,131393
comex.GC,D,20201126,000000,1806.3000000,1817.0000000,1803.9000000,1807.0000000,37293
comex.GC,D,20201127,000000,1806.7000000,1811.5000000,1770.7000000,1783.1000000,12816
comex.GC,D,20201129,000000,1790.8000000,1793.3000000,1788.7000000,1789.6000000,2965
comex.GC,D,20201130,000000,1789.5000000,1790.3000000,1767.2000000,1781.5000000,232154
comex.GC,D,20201201,000000,1781.4000000,1821.1000000,1779.7000000,1814.9000000,193578
comex.GC,D,20201202,000000,1814.9000000,1835.7000000,1810.5000000,1834.2000000,176648
comex.GC,D,20201203,000000,1834.2000000,1847.4000000,1826.7000000,1843.3000000,174634
comex.GC,D,20201204,000000,1843.3000000,1852.7000000,1832.0000000,1842.0000000,162289
comex.GC,D,20201206,000000,1841.1000000,1843.0000000,1836.3000000,1838.5000000,3055
comex.GC,D,20201207,000000,1838.5000000,1873.0000000,1824.8000000,1867.8000000,196498
comex.GC,D,20201208,000000,1867.7000000,1879.8000000,1863.9000000,1874.5000000,145073
comex.GC,D,20201209,000000,1874.5000000,1875.0000000,1828.2000000,1838.0000000,213873
comex.GC,D,20201210,000000,1837.9000000,1854.2000000,1831.5000000,1840.5000000,156596
comex.GC,D,20201211,000000,1840.5000000,1851.8000000,1826.8000000,1843.5000000,145634
comex.GC,D,20201213,000000,1845.0000000,1845.6000000,1839.0000000,1841.9000000,2860
comex.GC,D,20201214,000000,1841.9000000,1842.9000000,1820.0000000,1830.6000000,162783
comex.GC,D,20201215,000000,1830.5000000,1859.3000000,1828.5000000,1856.1000000,165826
comex.GC,D,20201216,000000,1856.1000000,1870.0000000,1848.2000000,1868.6000000,194440
comex.GC,D,20201217,000000,1868.5000000,1902.0000000,1865.9000000,1889.2000000,209510
comex.GC,D,20201218,000000,1889.2000000,1895.7000000,1881.9000000,1886.8000000,146518
comex.GC,D,20201220,000000,1892.9000000,1892.9000000,1887.9000000,1888.4000000,2371
comex.GC,D,20201221,000000,1888.3000000,1911.9000000,1859.1000000,1884.3000000,171704
comex.GC,D,20201222,000000,1884.1000000,1889.4000000,1863.7000000,1868.8000000,161970
comex.GC,D,20201223,000000,1868.8000000,1883.7000000,1860.9000000,1876.8000000,148870
comex.GC,D,20201224,000000,1876.9000000,1887.4000000,1873.1000000,1882.6000000,83082
comex.GC,D,20201227,000000,1887.0000000,1894.7000000,1885.6000000,1892.6000000,4440
comex.GC,D,20201228,000000,1892.4000000,1904.1000000,1873.0000000,1880.5000000,187549
comex.GC,D,20201229,000000,1880.5000000,1891.3000000,1875.6000000,1882.5000000,139291
comex.GC,D,20201230,000000,1882.6000000,1900.2000000,1879.5000000,1899.5000000,126649
comex.GC,D,20201231,000000,1899.6000000,1904.9000000,1889.1000000,1901.6000000,119732
comex.GC,D,20210103,000000,1908.2000000,1918.9000000,1906.1000000,1917.4000000,15099
comex.GC,D,20210104,000000,1917.1000000,1949.2000000,1914.6000000,1945.5000000,236340
comex.GC,D,20210105,000000,1945.4000000,1959.0000000,1938.4000000,1954.0000000,181972
comex.GC,D,20210106,000000,1954.2000000,1962.5000000,1902.6000000,1925.3000000,334164
comex.GC,D,20210107,000000,1925.1000000,1929.6000000,1907.5000000,1917.1000000,178063
comex.GC,D,20210108,000000,1917.0000000,1917.3000000,1827.8000000,1849.9000000,376864
comex.GC,D,20210110,000000,1849.4000000,1856.0000000,1841.4000000,1844.3000000,7219
comex.GC,D,20210111,000000,1844.4000000,1855.6000000,1817.1000000,1847.6000000,204927
comex.GC,D,20210112,000000,1847.5000000,1864.0000000,1835.8000000,1859.2000000,187847
comex.GC,D,20210113,000000,1859.1000000,1863.0000000,1841.6000000,1847.9000000,151844
comex.GC,D,20210114,000000,1847.8000000,1857.3000000,1826.6000000,1846.7000000,158061
comex.GC,D,20210115,000000,1846.7000000,1856.6000000,1822.1000000,1827.7000000,187936
comex.GC,D,20210117,000000,1828.8000000,1830.0000000,1800.8000000,1810.2000000,11427
comex.GC,D,20210118,000000,1810.2000000,1840.6000000,1809.6000000,1836.6000000,91653
comex.GC,D,20210119,000000,1836.5000000,1845.0000000,1831.8000000,1840.3000000,140642
comex.GC,D,20210120,000000,1840.2000000,1872.4000000,1831.1000000,1869.9000000,232215
comex.GC,D,20210121,000000,1869.9000000,1874.6000000,1857.5000000,1869.5000000,152885
comex.GC,D,20210122,000000,1869.7000000,1869.9000000,1836.3000000,1855.5000000,185777
comex.GC,D,20210124,000000,1855.3000000,1858.5000000,1853.1000000,1856.0000000,2385
comex.GC,D,20210125,000000,1856.3000000,1867.4000000,1846.2000000,1854.7000000,158277
comex.GC,D,20210126,000000,1854.5000000,1860.8000000,1846.0000000,1849.8000000,116778
comex.GC,D,20210127,000000,1850.0000000,1851.5000000,1828.4000000,1838.4000000,117815
comex.GC,D,20210128,000000,1838.8000000,1862.9000000,1831.5000000,1845.8000000,11165
comex.GC,D,20210129,000000,1845.8000000,1878.9000000,1841.2000000,1849.8000000,262697
comex.GC,D,20210131,000000,1865.0000000,1870.0000000,1855.0000000,1858.4000000,10973
comex.GC,D,20210201,000000,1858.2000000,1876.0000000,1851.7000000,1860.3000000,216090
comex.GC,D,20210202,000000,1860.6000000,1866.3000000,1830.4000000,1837.6000000,222054
comex.GC,D,20210203,000000,1837.6000000,1845.9000000,1830.1000000,1835.1000000,128275
comex.GC,D,20210204,000000,1835.1000000,1835.5000000,1784.6000000,1796.0000000,265316
comex.GC,D,20210205,000000,1796.0000000,1816.0000000,1792.2000000,1815.2000000,166306
comex.GC,D,20210207,000000,1818.1000000,1819.6000000,1815.0000000,1818.6000000,3280
comex.GC,D,20210208,000000,1818.6000000,1840.6000000,1807.3000000,1831.9000000,165744
comex.GC,D,20210209,000000,1832.1000000,1849.5000000,1831.4000000,1836.8000000,149851
comex.GC,D,20210210,000000,1836.8000000,1856.6000000,1834.0000000,1842.9000000,168993
comex.GC,D,20210211,000000,1842.8000000,1848.6000000,1821.7000000,1826.7000000,140955
comex.GC,D,20210212,000000,1826.7000000,1831.5000000,1810.1000000,1824.8000000,165028
comex.GC,D,20210214,000000,1826.0000000,1826.3000000,1820.1000000,1820.9000000,2713
comex.GC,D,20210215,000000,1821.1000000,1827.1000000,1815.5000000,1818.6000000,66279
comex.GC,D,20210216,000000,1818.7000000,1827.0000000,1785.9000000,1787.5000000,282135
comex.GC,D,20210217,000000,1787.4000000,1794.2000000,1767.9000000,1777.4000000,243473
comex.GC,D,20210218,000000,1777.3000000,1788.8000000,1766.6000000,1770.6000000,217860
comex.GC,D,20210219,000000,1770.5000000,1790.9000000,1759.0000000,1783.1000000,238578
comex.GC,D,20210221,000000,1782.0000000,1787.4000000,1780.4000000,1782.4000000,4539
comex.GC,D,20210222,000000,1782.8000000,1794.3000000,1778.6000000,1791.7000000,49592
